<svg xmlns="http://www.w3.org/2000/svg" width="32" height="32" viewBox="0 0 32 32">
  <path fill="#465575" d="M1.80000007,0.108654004 C1.56420906,0.108654004 1.34038505,0.158184006 1.13437505,0.23990401 L11.5781255,9.12741036 C12.0352235,9.51678038 12.5449475,9.51705038 13.0031255,9.12741036 L23.4562509,0.230514009 C23.2532199,0.151524006 23.0316369,0.108654004 22.8000009,0.108654004 L1.80000007,0.108654004 Z M0.0187500007,1.64615407 C0.00654600026,1.73111407 0,1.82021407 0,1.90865408 L0,13.9086606 C0,14.9058306 0.802818032,15.7086606 1.80000007,15.7086606 L22.8000009,15.7086606 C23.7971829,15.7086606 24.600001,14.9058306 24.600001,13.9086606 L24.600001,1.90865408 C24.600001,1.82021407 24.593461,1.73111407 24.581251,1.64615407 L14.1750006,10.4961604 C13.0962605,11.4135005 11.4849305,11.4149705 10.4062504,10.4961604 L0.0187500007,1.64615407 Z" transform="translate(4 8.191)"/>
</svg>
