<svg xmlns="http://www.w3.org/2000/svg" xmlns:xlink="http://www.w3.org/1999/xlink" width="598" height="273" viewBox="0 0 598 273">
  <defs>
    <polygon id="about_us1-a" points="0 .286 495.835 .286 495.835 291.829 0 291.829"/>
    <polygon id="about_us1-c" points=".197 .049 47.035 .049 47.035 44.433 .197 44.433"/>
  </defs>
  <g fill="none" fill-rule="evenodd" transform="translate(9 8)">
    <g transform="translate(75 12)">
      <mask id="about_us1-b" fill="#fff">
        <use xlink:href="#about_us1-a"/>
      </mask>
      <path fill="#F2D1D1" d="M150.121056,241.861662 C182.756745,226.972413 193.794851,251.029872 228.642838,241.861662 C254.478356,235.06488 274.399984,241.53085 307.447924,241.53085 C348.696035,241.53085 350.682788,241.861662 384.309904,241.861662 C417.937021,241.861662 489.112012,197.672015 494.736791,153.223356 C495.155658,150.489068 495.413817,147.851485 495.527509,145.30205 C499.546063,89.5217123 463.690232,88.1823817 418.697125,85.847753 C398.704368,84.8105207 387.783064,61.0825463 375.345292,45.3777184 C347.393216,10.0810087 332.090054,9.43915697 287.158496,11.7900459 C264.84915,12.958216 221.719573,-1.81806639 199.503403,0.542236333 C159.21357,4.8238152 152.030436,22.7751241 133.930272,41.2861277 C122.19688,53.2861874 113.410085,67.8741933 102.022899,80.2037369 C81.3539715,102.582967 0.0382963705,96.0138285 -0.00166755384,172.057853 C-0.0309448351,233.003813 65.084244,251.719809 107.199994,232.506191" mask="url(#about_us1-b)"/>
    </g>
    <path fill="#9D1C20" d="M367.007306,152.799991 C367.007306,152.799991 371.652539,154.287996 375.316323,158.587712 C377.388757,161.019165 402.742563,207.962889 404.370716,211.018508 C405.997994,214.074973 405.995365,221.800404 402.153693,226.55406 C400.663118,228.401151 396.375413,233.568941 391.690747,239.199986 L376.501072,239.199986 C382.016464,231.201853 389.217846,220.742625 389.733983,219.899958 C390.576977,218.523744 391.000227,217.192416 389.460579,214.867673 C387.918302,212.542082 367.622464,188.628138 367.622464,188.628138 C367.622464,188.628138 357.644984,161.670432 367.007306,152.799991"/>
    <path fill="#6B1219" d="M341.395099,148.799991 C341.395099,148.799991 366.433296,152.351958 367.512958,152.618335 C368.591761,152.885567 370.419805,155.399439 371.404203,157.094482 C372.390317,158.790381 373.546362,183.1805 374.107648,190.01035 C374.668935,196.840199 372.460692,226.614371 373.118102,234.61165 C373.227098,235.938392 373.431358,237.806451 373.695695,239.999986 L298.798238,239.999986 C297.837871,231.156469 291.158215,203.487612 290.612376,196.839343 C290.051089,190.009493 287.213759,165.756417 287.908931,163.923475 C288.604102,162.09139 289.997879,159.313712 291.01918,158.875176 C292.040482,158.43664 316.458174,150.84021 316.458174,150.84021 L328.976414,152.218342 L341.395099,148.799991 Z"/>
    <path fill="#FFF" d="M341.993989,148.799991 C341.993989,148.799991 343.679701,149.050925 346.199984,149.425506 C346.083126,150.068296 345.791855,150.671082 345.328786,151.225681 C335.443868,163.036825 325.341806,163.900545 313.745014,153.925033 C313.197354,153.454078 312.814515,152.904025 312.599986,152.284874 C315.031318,151.492979 316.655113,150.965656 316.655113,150.965656 L329.375131,152.428525 L341.993989,148.799991 Z"/>
    <path fill="#B96B6B" d="M337.70483,124.799993 L337.924213,130.941496 C337.924213,130.941496 338.993817,143.473106 339.156812,145.376524 C339.235227,146.295677 340.344478,147.54461 342.199984,148.561852 C333.79646,157.805817 326.459016,158.383353 316.599986,150.575197 C318.259016,149.282293 319.140955,147.876926 319.062541,146.956927 C318.900426,145.054355 317.829941,132.521899 317.829941,132.521899 L317.005272,126.427749 C317.005272,126.427749 322.165624,126.815028 327.517166,127.510101 C332.677518,125.988043 337.70483,124.799993 337.70483,124.799993"/>
    <path fill="#9D1C20" d="M342.984563,148.799991 C342.984563,148.799991 340.095209,161.326854 339.880199,163.876394 C339.666046,166.425935 336.27129,192.090622 336.625928,196.429223 C336.786971,198.403033 340.696551,218.457357 344.951345,239.999986 L378.999982,239.999986 C378.165641,234.749668 377.4478,230.222021 377.063181,227.665606 C375.679752,218.474542 374.75204,199.371464 375.054424,187.573286 C375.356809,175.775109 372.43319,158.07011 372.085405,156.389321 C371.736764,154.708532 368.399401,152.609264 367.36547,152.219142 L342.984563,148.799991 Z"/>
    <path fill="#67647E" d="M338.530719,168.622116 C337.478166,177.137254 335.55098,192.699313 335.82667,195.999988 C335.82667,195.999988 352.856014,177.788737 352.59706,175.993481 C352.338986,174.19736 345.410631,160.79999 345.410631,160.79999 C345.410631,160.79999 342.434415,164.162094 338.530719,168.622116"/>
    <path fill="#747B9C" d="M342.661191,149.485277 C342.661191,149.485277 343.390027,148.822718 343.650568,148.799991 C343.91111,148.779414 348.376931,150.315856 348.376931,150.315856 C348.376931,150.315856 354.892176,160.735772 354.999458,162.065218 C355.105889,163.396397 338.999984,176.799991 338.999984,176.799991 L340.427855,164.543965 C340.427855,164.543965 342.762513,152.562491 343.487091,149.605663 L342.661191,149.485277 Z"/>
    <path fill="#9D1C20" d="M291.572182,158.399991 C291.572182,158.399991 287.309889,160.614799 284.46635,165.468274 C282.858832,168.211839 266.03118,218.870996 264.957203,222.164639 C263.883226,225.459134 265.166654,233.134635 269.683219,237.249556 C270.171939,237.695588 270.914931,238.362503 271.850998,239.199986 L290.495619,239.199986 C285.556704,233.960177 281.085822,229.203073 280.635027,228.670052 C279.58777,227.436855 278.95683,226.180631 280.066147,223.625542 C281.176325,221.072159 296.911038,194.09448 296.911038,194.09448 C296.911038,194.09448 302.127498,165.729241 291.572182,158.399991"/>
    <path fill="#9D1C20" d="M315.075771,151.199991 C315.075771,151.199991 320.062203,163.084778 320.700592,165.565858 C321.338981,168.04522 329.01102,192.807055 329.373066,197.14465 C329.533975,199.073329 328.949805,218.626441 328.252824,239.999986 L293.867256,239.999986 C293.851515,237.769763 293.8349,235.896066 293.816535,234.560166 C293.687983,225.268142 291.457118,206.272586 289.197396,194.683329 C286.937673,183.094072 286.949041,165.152631 287.020751,163.437868 C287.093335,161.723964 290.106882,159.107146 291.084579,158.553886 L315.075771,151.199991 Z"/>
    <path fill="#67647E" d="M321.634759,169.897222 C324.002476,178.230232 328.3335,193.459254 328.599985,196.799988 C328.599985,196.799988 309.441144,181.369559 309.400277,179.535001 C309.358559,177.699567 313.819845,163.19999 313.819845,163.19999 C313.819845,163.19999 317.197311,166.074861 321.634759,169.897222"/>
    <path fill="#747B9C" d="M315.703517,151.703848 C315.703517,151.703848 314.867708,151.178535 314.604359,151.200671 C314.33842,151.221105 310.120521,153.43985 310.120521,153.43985 C310.120521,153.43985 305.292169,164.605092 305.401826,165.913692 C305.509756,167.222291 323.799985,177.599989 323.799985,177.599989 L320.382493,165.945193 C320.382493,165.945193 316.102426,154.704177 314.897065,151.954159 L315.703517,151.703848 Z"/>
    <path fill="#B96B6B" d="M305.937802 128.814455C305.821036 128.841138 305.70587 128.871864 305.592303 128.907441L305.589104 128.908249 305.589104 128.908249C303.498519 129.556725 302.049345 131.595946 302.212497 133.895528 302.404441 136.569479 304.702965 138.580401 307.345388 138.387152 309.99021 138.193903 311.978425 135.871681 311.787281 133.198538 311.677713 131.644461 310.854755 130.315167 309.666305 129.512254 309.917431 130.927256 309.85185 132.713394 308.066775 133.057038L307.867634 130.265844C307.786858 129.136267 306.699986 128.713383 305.937802 128.814455M343.198825 126.399992C343.31878 126.405593 343.437135 126.414394 343.55469 126.427995L343.558689 126.428795 343.558689 126.427995C345.730665 126.68082 347.521186 128.403392 347.770691 130.670817 348.060981 133.306279 346.160902 135.680115 343.5275 135.970544 340.8925 136.261773 338.5206 134.359984 338.22951 131.725322 338.059974 130.193169 338.631757 128.750626 339.656169 127.752927 339.663366 129.176268 340.04802 130.90284 341.864131 130.914041L341.560247 128.161768C341.437093 127.047257 342.431116 126.439196 343.198825 126.399992"/>
    <path fill="#FFB9B9" d="M322.716311,100.874148 L322.714629,100.874148 C313.248465,101.768594 306.207733,110.518829 307.071735,120.321147 L308.499399,136.530028 C309.36256,146.331475 317.817496,153.619419 327.282818,152.725844 L327.284501,152.724973 C336.751505,151.831399 343.792238,143.080293 342.928236,133.278846 L341.500571,117.069094 C340.636569,107.267646 332.182474,99.980574 322.716311,100.874148"/>
    <path fill="#B96B6B" d="M308.1604,112.761613 C307.227973,115.204428 306.821003,117.887732 307.073427,120.657233 L308.530451,136.699305 C309.360706,145.835296 317.061383,152.763788 326.025043,152.799991 C315.811279,152.011291 313.919809,139.893755 313.139352,133.513474 C312.361472,127.130607 314.740619,125.703189 315.687642,125.385985 C316.633806,125.069643 331.465916,122.598383 334.746581,122.218255 C338.028963,121.838128 339.679169,123.665498 339.679169,123.665498 L341.058062,121.648495 L339.732402,117.339521 C339.732402,117.339521 340.86488,117.376585 342.199984,117.342969 C342.089226,116.193104 341.869428,115.078581 341.55175,114.008879 C339.655988,113.337407 337.524972,112.528882 335.75628,111.382465 C331.843694,108.848282 313.162534,112.016873 310.133435,112.016873 C309.679242,112.016873 308.996665,112.290117 308.1604,112.761613"/>
    <path fill="#2F2E41" d="M341.235123,126.167093 C341.235123,126.167093 341.343331,127.314617 341.443748,128.379935 C341.544165,129.445253 342.676451,130.543285 343.519606,130.468629 L343.291071,128.051112 C343.291071,128.051112 343.481517,126.236717 345.753881,126.036236 C351.995307,117.652939 349.914254,105.404301 341.870519,99.6700389 C333.825919,93.9349381 317.802508,94.9381823 315.096447,96.0865446 C312.391252,97.234068 309.947487,102.077489 309.947487,102.077489 C309.947487,102.077489 307.385126,100.237929 305.287626,101.497017 C303.189261,102.756944 297.095863,116.846821 297.41183,120.207185 C297.728662,123.56755 305.067748,129.632312 305.067748,129.632312 C307.340112,129.431831 307.864703,131.182476 307.864703,131.182476 L308.092372,133.599992 C308.935528,133.525336 309.844473,132.247793 309.744922,131.182476 C309.644505,130.116319 309.536297,128.968795 309.536297,128.968795 C309.615938,128.926854 309.692117,128.881557 309.770026,128.837937 C311.917735,127.4849 311.491829,123.353648 311.491829,123.353648 L309.512059,120.670221 L313.4413,115.662389 L317.961789,114.222113 L328.232008,114.602943 C328.232008,114.602943 340.341759,116.061673 339.281323,119.476562 C338.221752,122.893129 341.235123,126.167093 341.235123,126.167093"/>
    <path fill="#5A5773" d="M297.862206,115.449328 C297.525699,116.744139 297.351405,117.80657 297.411804,118.465123 C297.655125,121.112197 306.523393,133.894813 308.491531,136.799992 C309.516585,136.707383 309.653776,129.134881 309.495877,127.421615 C309.575258,127.377883 309.652051,127.333293 309.729706,127.287846 C311.870412,125.904714 311.445032,121.682429 311.445032,121.682429 L309.47258,118.938458 L313.388148,113.819238 L317.686816,112.413811 C315.522813,111.546887 314.898117,110.634517 314.898117,110.634517 C306.014318,119.567856 300.857986,119.079944 297.862206,115.449328 M341.092211,124.557595 C341.214735,125.901284 342.119854,131.905434 343.694536,131.763091 C348.390974,121.932816 352.727607,111.671224 345.731701,101.599994 C344.908552,108.08091 338.413093,112.0348 331.90728,113.39478 C335.349149,114.13994 339.803991,115.539365 339.144782,117.718249 C338.088666,121.210809 341.092211,124.557595 341.092211,124.557595"/>
    <path fill="#2F2E41" d="M304.858186,126.399992 C304.858186,126.399992 297.381714,110.238513 312.42239,107.474927 C312.42239,107.474927 316.403414,99.6388485 324.379359,101.603931 C332.355304,103.569013 337.347436,103.514451 340.925405,99.999994 C340.925405,99.999994 342.976288,103.848749 340.485868,107.21511 C348.036175,113.055795 345.412851,120.544585 342.323932,124.58647 C341.086105,116.209972 318.95377,125.533936 316.060297,117.483075 C315.771905,125.176255 307.682167,123.26227 304.858186,126.399992"/>
    <path fill="#5A5773" d="M304.803168,126.399992 C304.803168,126.399992 303.30965,122.94553 302.999986,118.861381 C305.910476,118.565549 309.687329,116.337073 314.592365,111.044558 C314.592365,111.044558 316.59648,114.184641 325.846376,114.589903 C331.464683,114.835657 338.607822,112.619236 342.635189,107.999994 C347.449762,113.848005 345.069875,120.610406 342.320306,124.458074 C341.080782,115.488527 318.918957,125.47262 316.019775,116.851765 C315.731858,125.089615 307.631023,123.039194 304.803168,126.399992"/>
    <path fill="#FFB9B9" d="M517.791118,126.339239 C514.692326,114.530683 503.866556,121.023702 499.234113,131.134816 C494.60082,141.245064 483.985267,180.682473 474.808043,190.89308 C471.250518,194.851183 472.339053,195.184269 475.608912,193.256695 C491.920761,183.644778 522.055893,142.594712 517.791118,126.339239"/>
    <path fill="#B07473" d="M473.415244,194.774368 C473.306158,195.297707 473.786635,195.322425 474.695959,194.936313 C498.891319,173.99167 511.740107,127.168166 511.781743,127.018153 C511.853356,126.760746 511.707631,126.492257 511.456151,126.418956 C511.204671,126.344802 510.942366,126.494814 510.870753,126.752222 C510.829117,126.903087 497.804626,174.364997 473.415244,194.774368"/>
    <path fill="#B07473" d="M490.458318,134.855251 C484.974709,126.325014 477.862168,134.204683 476.66854,143.361488 C475.474047,152.51915 476.842143,186.341813 472.00026,196.735468 C470.123448,200.764873 471.086469,200.750302 473.243983,198.396601 C484.003914,186.659811 498.007026,146.597183 490.458318,134.855251"/>
    <path fill="#D6E6F9" d="M470.999976,198.124464 C471.043216,198.565498 471.447076,198.461576 472.100863,197.92338 C486.745334,175.182269 485.368577,134.91979 485.363389,134.790522 C485.357335,134.568315 485.16708,134.393422 484.941368,134.399992 C484.713926,134.406941 484.535778,134.591972 484.541832,134.813334 C484.546156,134.943447 485.941938,175.756796 470.999976,198.124464"/>
    <path fill="#B07473" d="M518.962015,162.44636 C528.335784,163.423681 524.714586,172.58777 517.58068,177.392361 C510.446775,182.196951 481.708695,195.164389 475.054028,203.499807 C472.47417,206.730774 472.088045,205.927731 473.155867,203.164066 C478.481309,189.376499 506.059308,161.100836 518.962015,162.44636"/>
    <path fill="#D6E6F9" d="M471.388271,205.567719 C470.988178,205.716872 470.908684,205.342295 471.097374,204.582122 C484.561628,183.048135 519.93576,167.286207 520.049323,167.234511 C520.243254,167.14807 520.473876,167.229427 520.563853,167.417563 C520.65383,167.606547 520.569968,167.830277 520.376036,167.917565 C520.262473,167.96926 484.404386,183.946444 471.388271,205.567719"/>
    <path fill="#2F2E41" d="M383.790332,151.199991 L381.399982,171.694602 C381.399982,171.694602 385.013139,219.690273 386.790332,239.999986 L413.611383,239.999986 L414.19998,158.313441 L383.790332,151.199991 Z"/>
    <path fill="#2F2E41" d="M397.740824,169.730844 L396.599981,176.978917 L398.869809,240.799986 L430.440748,240.799986 C430.966705,236.38279 431.442691,232.605432 431.827207,229.883337 C434.198669,213.096794 435.010048,189.767114 434.999979,184.244977 C434.988874,178.723696 428.665539,170.529999 426.492263,169.929562 C424.318988,169.330838 397.740824,169.730844 397.740824,169.730844"/>
    <path fill="#444053" d="M387.808427,70.513765 C387.808427,70.513765 386.728241,68.4637501 385.875463,68.8479657 C385.021836,69.2330465 356.382915,112.209804 355.41219,115.907445 C354.443163,119.605087 354.841126,126.160116 360.384608,135.257543 C365.927242,144.354971 377.787223,166.682739 378.206399,167.163874 C378.624727,167.645874 385.105841,163.165956 385.796549,161.913794 C385.796549,161.913794 386.080809,161.501887 385.665875,160.665093 C385.249244,159.827434 371.149978,125.768977 370.257319,123.324363 C369.365508,120.879748 394.484704,90.5587392 395.682836,88.1340277 C396.881817,85.7093162 401.498699,72.9869361 387.808427,70.513765"/>
    <path fill="#5F546F" d="M409.674722,58.3999965 L397.087256,67.363977 C397.087256,67.363977 388.107585,102.413141 388.072475,104.005314 C388.037364,105.598342 384.599982,124.926391 384.599982,124.926391 C384.599982,124.926391 397.186592,129.906095 398.984924,125.12616 C400.783256,120.346224 420.963109,86.0858904 421.962467,80.7083559 C422.96097,75.3308213 420.563194,62.5823337 419.364306,61.189075 C418.165418,59.7941089 409.674722,58.3999965 409.674722,58.3999965"/>
    <path fill="#444053" d="M398.199981,63.1999962 C398.199981,63.1999962 386.887645,67.2070014 385.846659,67.8048449 C384.805672,68.4035437 378.69572,90.8128379 378.201145,92.9082835 C377.70487,95.0037292 380.976542,133.415386 380.976542,136.808297 C380.976542,140.201208 376.714021,182.604475 376.614597,183.303242 C376.516022,184.001154 376.912871,184.799989 377.90372,184.799989 C378.894569,184.799989 389.997858,163.74803 390.889282,161.353235 C391.781556,158.95844 388.893987,122.842366 388.893987,122.842366 L396.442626,71.1567026 L398.199981,63.1999962 Z"/>
    <path fill="#3F3D56" d="M431.834635,69.5999959 C431.834635,69.5999959 447.992692,85.8827029 448.584646,86.8707909 C449.177447,87.8580321 432.384246,143.466978 432.186928,146.03499 C431.988763,148.603003 440.48614,186.432293 440.781693,187.419534 C440.781693,187.419534 440.831658,187.814938 440.535257,188.407622 C440.238857,189.000305 439.546974,189.345755 439.202302,189.592989 C438.855937,189.840222 399.339835,183.468876 396.177666,181.493546 C393.017191,179.519064 386.199981,148.800282 386.199981,144.652345 C386.199981,140.503561 388.590662,124.626418 388.590662,124.626418 L408.033682,91.7104744 C408.033682,91.7104744 422.079674,70.6481988 431.834635,69.5999959"/>
    <path fill="#5F546F" d="M429.759008,67.199996 C429.759008,67.199996 448.782776,86.2637037 449.384396,87.2634047 C449.986877,88.2622491 432.91859,144.524772 432.71805,147.122967 C432.516649,149.721162 441.152784,187.995063 441.454025,188.993907 C441.454025,188.993907 441.503945,189.393959 441.202704,189.993608 C440.902324,190.593258 440.199143,190.942768 439.847983,191.192907 C439.666378,191.321403 428.983529,189.682647 418.19998,187.788612 C427.554788,174.369318 427.065918,152.135179 426.249986,150.783398 C425.301509,149.208033 420.303499,145.808879 421.061764,145.556169 C421.821751,145.304316 426.945422,145.17839 427.324985,143.919127 C427.704548,142.659863 434.912802,102.818307 434.912802,102.818307 L439.725765,99.5896243 C439.725765,99.5896243 441.876622,84.0989697 440.357509,81.8322954 C438.845282,79.5741875 428.826023,70.9932061 428.743397,70.9229615 C429.988811,70.3147458 428.603105,67.3242091 429.759008,67.199996"/>
    <path fill="#444053" d="M445.916343,84.7999949 C445.916343,84.7999949 448.440127,86.7805623 450.186421,89.0215949 C451.931841,91.2617678 473.68146,135.998177 474.130482,140.191409 C474.580377,144.384641 472.987834,151.447289 465.151786,160.376175 C457.315739,169.305061 440.050227,191.524551 439.493754,191.975852 C438.938155,192.427153 432.410736,186.418401 431.849895,184.934695 C431.849895,184.934695 431.600924,184.437834 432.215053,183.599703 C432.83093,182.760712 454.665285,148.168694 456.098837,145.665477 C457.530641,143.1614 434.488992,105.777332 433.560372,102.928547 C432.630879,100.079763 430.046818,85.0965643 445.916343,84.7999949"/>
    <path fill="#FFB8B8" d="M422.960362,42.3999975 C423.076274,48.6822667 421.456943,55.1727068 421.86564,61.4636138 C421.949783,62.7471903 422.560252,63.1730337 424.134077,64.202659 C426.314078,67.4660184 420.351917,77.7855936 416.431522,78.3999975 C416.172223,78.4412023 409.785911,73.4027758 405.261916,72.2332182 C402.940245,71.6328913 401.028988,74.6155224 400.853832,74.487683 C399.913658,73.8009782 401.936534,68.4619563 401.277125,66.4372569 C402.073053,66.2230395 402.781403,64.4341519 403.346365,63.912429 C407.010896,60.5117287 405.814858,52.0242301 402.813171,48.8170163 C400.571351,46.4226192 422.960362,42.3999975 422.960362,42.3999975"/>
    <path fill="#FFF" d="M425.368541,66.4179935 C424.874228,67.8137793 412.876285,83.7851321 412.876285,83.7851321 C412.876285,83.7851321 412.446633,84.3587194 411.819595,83.6315532 C411.193408,82.9052355 403.79998,72.613755 403.79998,72.613755 L420.217815,60.413145 L419.842613,57.6063005 C420.084239,57.3500529 425.875616,64.9831767 425.368541,66.4179935"/>
    <path fill="#FFF" d="M404.906318,61.6355674 C404.91116,61.6267985 404.885982,61.6110145 404.834659,61.607507 C398.447353,61.1988776 397.479961,77.5870196 398.602291,80.7999952 C398.610038,80.820979 402.484448,75.4360156 405.155186,73.2946575 C406.3637,72.3256973 402.582253,64.9212631 404.906318,61.6355674"/>
    <path fill="#444053" d="M424.572025,62.3999963 C424.572025,62.3999963 403.238775,88.816902 401.725656,91.03321 C400.213402,93.2503818 388.613399,120.556056 386.999981,126.399996 C386.999981,126.399996 404.853922,104.132402 407.37521,102.117341 C409.895634,100.10228 419.228553,92.3434748 419.228553,92.3434748 C419.228553,92.3434748 419.480163,91.8390617 419.353926,91.4866636 C419.228553,91.1342654 416.632041,85.2652814 416.632041,85.2652814 C416.632041,85.2652814 424.398232,86.4235312 425.103778,86.3734354 C425.810188,86.3233396 429.297279,69.0135077 429.398442,68.5090947 C429.499605,68.0055454 424.572025,62.3999963 424.572025,62.3999963"/>
    <path fill="#444053" d="M405.399981,61.5999963 C405.399981,61.5999963 399.81956,62.8925341 398.921836,63.3917683 C398.025822,63.8901476 390.943211,75.6571994 390.744002,76.6548129 C390.744002,76.6548129 390.64397,77.1284015 391.043243,77.3284371 C391.442516,77.5276178 392.913073,78.4491494 393.062693,78.5996035 C393.212314,78.7492028 390.594381,79.0484013 390.594381,79.0484013 C390.594381,79.0484013 390.295995,79.1603871 390.346438,79.6220077 C390.395172,80.0827735 389.399981,123.999993 389.399981,123.999993 C389.399981,123.999993 398.10619,75.438357 399.394637,72.2420616 C400.682229,69.0457661 404.147442,63.9893105 404.147442,63.9893105 L405.399981,61.5999963 Z"/>
    <path fill="#B96B6B" d="M395.773174 33.599998C398.423714 33.5852247 400.585063 35.7228302 400.599981 38.373593 400.613936 41.0243557 398.477335 43.1858866 395.825971 43.1999974 393.176256 43.215587 391.014907 41.0779815 390.999981 38.4272187 390.985209 35.7764559 393.122635 33.6157501 395.773174 33.599998M427.773583 33.599998C430.42435 33.5852247 432.58506 35.7228321 432.599979 38.3735973 432.613935 41.0243625 430.477976 43.1850703 427.826384 43.1999974 425.175616 43.2147707 423.014081 41.0771633 422.999979 38.4263981 422.985206 35.7764579 425.12199 33.6149251 427.773583 33.599998"/>
    <path fill="#FFB9B9" d="M410.063759,7.99999952 L410.063759,7.99999952 C419.280533,7.9426409 426.863497,16.3111857 426.91563,26.5978267 L426.999979,43.5939323 C427.05101,53.8797128 419.552134,62.3411936 410.33536,62.3999963 L410.33536,62.3999963 C401.119427,62.4565031 393.536464,54.0879584 393.48433,43.8021779 L393.399981,26.8060722 C393.34895,16.5194312 400.846985,8.05708989 410.063759,7.99999952"/>
    <path fill="#B96B6B" d="M426.263135,22.7256846 C426.679355,24.287639 426.905543,25.934046 426.914793,27.6356398 L426.999979,44.1507159 C427.046806,53.340995 420.710169,61.0328681 412.524505,62.2536676 C411.720653,62.337284 411.204372,62.3891261 411.09338,62.3999991 L411.084971,62.3999991 C420.236771,61.4994476 422.174927,49.5439741 422.174927,45.9392708 L422.174927,36.5775782 C422.174927,27.7317987 417.251757,26.8086736 413.883317,26.8086736 L397.171445,26.8086736 C395.012145,26.8086736 394.235201,28.7845292 394.235201,28.7845292 L393.401919,28.1548977 L393.399981,27.8379915 C393.373331,22.5450731 395.463681,17.7496723 398.804373,14.3999991 C407.195205,16.030519 421.148251,18.8024029 422.110182,19.4002601 C422.63319,19.725528 424.340954,21.1185773 426.263135,22.7256846"/>
    <path fill="#C0BCCF" d="M390.300707,22.45871 L393.405752,25.5999985 C393.405752,25.5999985 394.894091,19.7596842 407.413146,21.5610741 C419.933935,23.3615901 395.868971,9.83586964 393.143818,11.3129919 C390.418664,12.7892402 388.043045,17.1323294 390.300707,22.45871"/>
    <g transform="translate(384.6)">
      <mask id="about_us1-d" fill="#fff">
        <use xlink:href="#about_us1-c"/>
      </mask>
      <path fill="#2F2E41" d="M37.3427133,21.7925162 C37.3427133,21.7925162 25.202785,23.128834 19.0251459,19.1919285 C12.8466522,15.2541654 7.61672395,13.4289509 6.03321789,15.5680886 C4.53089536,17.5965812 10.5718043,23.0765134 8.1414259,32.3955717 C8.00896857,32.900765 7.69192553,41.519929 7.50648527,42.0491383 C7.44752039,38.6766084 6.37077045,30.0591599 5.25812885,27.9020101 C1.93473163,21.4640119 -3.26272322,16.6247917 3.4874734,6.97036744 C7.63210609,1.04528189 14.6702906,-1.73199475 17.9389958,1.266572 C28.5936927,11.0350722 43.2614196,-1.65651595 43.3520034,14.5302551 C43.3520034,14.5302551 51.2541515,17.2011753 43.9100333,33.4291166 C42.2479074,33.4385514 41.7334602,34.7011059 41.7402967,35.7689593 L41.8052435,44.4327244 C35.871155,44.4335821 35.7506616,28.8197637 37.3427133,21.7925162" mask="url(#about_us1-d)"/>
    </g>
    <path fill="#AE767A" d="M418.049664,233.599986 L452.74943,233.599986 C454.426627,233.599986 455.799977,232.214074 455.799977,230.519601 L455.799977,170.280375 C455.799977,168.586774 454.426627,167.19999 452.74943,167.19999 L418.049664,167.19999 C416.372467,167.19999 414.99998,168.586774 414.99998,170.280375 L414.99998,230.519601 C414.99998,232.213203 416.372467,233.599986 418.049664,233.599986"/>
    <path fill="#FFF" d="M451.997898,233.599986 L480.402929,233.599986 C481.831174,233.599986 482.999976,232.433728 482.999976,231.007721 L482.999976,169.791384 C482.999976,168.36712 481.831174,167.19999 480.402929,167.19999 L451.997898,167.19999 C450.569653,167.19999 449.399978,168.367991 449.399978,169.791384 L449.399978,231.007721 C449.399978,232.433728 450.56878,233.599986 451.997898,233.599986"/>
    <path fill="#FFF" d="M408.59998,193.599988 L444.135834,193.599988 C444.135834,187.116688 450.999978,186.399989 450.999978,186.399989 L415.464124,186.399989 C415.464124,186.399989 408.59998,187.116688 408.59998,193.599988"/>
    <path fill="#FFCED8" d="M414.587431,222.399987 L451.412526,222.399987 C452.505368,222.399987 453.399977,223.290458 453.399977,224.377207 L453.399977,237.223615 C453.399977,238.310364 452.505368,239.199986 451.412526,239.199986 L414.587431,239.199986 C413.493735,239.199986 412.59998,238.311214 412.59998,237.223615 L412.59998,224.377207 C412.59998,223.289608 413.493735,222.399987 414.587431,222.399987"/>
    <path fill="#CB919B" d="M451.350911,222.399987 L459.276261,222.399987 L459.277939,222.399987 L459.282133,222.399987 L459.289681,222.399987 C459.468335,222.401686 461.402493,222.476459 462.486158,224.870875 C463.625181,227.382548 463.503563,229.894221 466.876177,229.894221 L468.328892,229.894221 C471.703185,229.894221 471.607567,227.323919 472.718911,224.870875 C473.830255,222.41783 475.737573,222.401686 475.917066,222.399987 L475.923776,222.399987 L475.928808,222.399987 L475.929647,222.399987 L483.449043,222.399987 C484.522643,222.399987 485.399978,223.290458 485.399978,224.377207 L485.399978,237.223615 C485.399978,238.310364 484.521804,239.199986 483.449043,239.199986 L451.350911,239.199986 C450.27731,239.199986 449.399978,238.311214 449.399978,237.223615 L449.399978,224.377207 C449.399978,223.289608 450.27731,222.399987 451.350911,222.399987"/>
    <path fill="#FFF" d="M408.59998,215.199987 L444.135834,215.199987 C444.135834,208.715904 450.999978,207.999988 450.999978,207.999988 L415.464124,207.999988 C415.464124,207.999988 408.59998,208.715904 408.59998,215.199987"/>
    <path fill="#474157" d="M487.799975,203.999988 L455.648732,203.999988 C455.648732,197.515905 449.399978,196.799988 449.399978,196.799988 L481.550373,196.799988 C481.550373,196.799988 487.799975,197.515905 487.799975,203.999988"/>
    <path fill="#AE767A" d="M455.333699 174.39999L481.065368 174.39999C481.689402 174.39999 482.199977 174.93999 482.199977 175.59999 482.199977 176.259989 481.689402 176.799989 481.065368 176.799989L455.333699 176.799989C454.710551 176.799989 454.199977 176.259989 454.199977 175.59999 454.199977 174.93999 454.710551 174.39999 455.333699 174.39999M455.333699 187.199989L481.065368 187.199989C481.689402 187.199989 482.199977 187.739989 482.199977 188.399989 482.199977 189.059051 481.689402 189.599989 481.065368 189.599989L455.333699 189.599989C454.710551 189.599989 454.199977 189.059989 454.199977 188.399989 454.199977 187.739989 454.710551 187.199989 455.333699 187.199989M455.333699 211.199987L481.065368 211.199987C481.689402 211.199987 482.199977 211.739987 482.199977 212.399987 482.199977 213.059987 481.689402 213.599987 481.065368 213.599987L455.333699 213.599987C454.710551 213.599987 454.199977 213.059987 454.199977 212.399987 454.199977 211.739987 454.710551 211.199987 455.333699 211.199987"/>
    <path fill="#474157" d="M419.304221 174.39999L443.495736 174.39999C444.103069 174.39999 444.599978 174.93999 444.599978 175.59999 444.599978 176.259989 444.103069 176.799989 443.495736 176.799989L419.304221 176.799989C418.696888 176.799989 418.19998 176.259989 418.19998 175.59999 418.19998 174.93999 418.696888 174.39999 419.304221 174.39999M419.304221 200.799988L443.495736 200.799988C444.103069 200.799988 444.599978 201.339988 444.599978 201.999988L444.599978 202.000925C444.599978 202.659988 444.103069 203.199988 443.495736 203.199988L419.304221 203.199988C418.696888 203.199988 418.19998 202.659988 418.19998 202.000925L418.19998 201.999988C418.19998 201.339988 418.696888 200.799988 419.304221 200.799988M419.304221 218.399987L443.495736 218.399987C444.103069 218.399987 444.599978 218.939987 444.599978 219.599987 444.599978 220.259987 444.103069 220.799987 443.495736 220.799987L419.304221 220.799987C418.696888 220.799987 418.19998 220.259987 418.19998 219.599987 418.19998 218.939987 418.696888 218.399987 419.304221 218.399987"/>
    <path fill="#AE767A" d="M400.113447,235.199986 L421.885618,235.199986 C422.939009,235.199986 423.799979,234.398685 423.799979,233.419131 L423.799979,198.581676 C423.799979,197.602123 422.939009,196.799988 421.885618,196.799988 L400.113447,196.799988 C399.060951,196.799988 398.199981,197.602123 398.199981,198.581676 L398.199981,233.419131 C398.199981,234.398685 399.060951,235.199986 400.113447,235.199986"/>
    <path fill="#FFF" d="M419.807541,235.199986 L437.392417,235.199986 C438.277067,235.199986 438.999978,234.525293 438.999978,233.701502 L438.999978,198.299305 C438.999978,197.475514 438.276174,196.799988 437.392417,196.799988 L419.807541,196.799988 C418.923784,196.799988 418.19998,197.475514 418.19998,198.299305 L418.19998,233.701502 C418.19998,234.525293 418.923784,235.199986 419.807541,235.199986"/>
    <path fill="#FFF" d="M393.399981,210.399988 L414.855623,210.399988 C414.855623,206.797994 418.999979,206.399988 418.999979,206.399988 L397.544337,206.399988 C397.544337,206.399988 393.399981,206.797994 393.399981,210.399988"/>
    <path fill="#FFCED8" d="M397.846449,229.599986 L420.952625,229.599986 C421.638315,229.599986 422.199979,230.107868 422.199979,230.728879 L422.199979,238.070291 C422.199979,238.691302 421.638315,239.199986 420.952625,239.199986 L397.846449,239.199986 C397.160759,239.199986 396.599981,238.692104 396.599981,238.070291 L396.599981,230.728879 C396.599981,230.107868 397.160759,229.599986 397.846449,229.599986"/>
    <path fill="#CB919B" d="M419.457558,229.599986 L424.564684,229.599986 L424.565577,229.599986 L424.568256,229.599986 L424.573615,229.599986 C424.687941,229.600789 425.934801,229.643313 426.63415,231.011303 C427.36744,232.446689 427.289735,233.882075 429.462809,233.882075 L430.398847,233.882075 C432.572814,233.882075 432.512079,232.412991 433.228398,231.011303 C433.943825,229.609614 435.173715,229.600789 435.288933,229.599986 L435.293399,229.599986 L435.296079,229.599986 L435.296972,229.599986 L440.143293,229.599986 C440.834604,229.599986 441.399978,230.107868 441.399978,230.728879 L441.399978,238.070291 C441.399978,238.691302 440.834604,239.199986 440.143293,239.199986 L419.457558,239.199986 C418.766247,239.199986 418.19998,238.692104 418.19998,238.070291 L418.19998,230.728879 C418.19998,230.107868 418.766247,229.599986 419.457558,229.599986"/>
    <path fill="#FFF" d="M393.399981,224.799987 L414.855623,224.799987 C414.855623,221.197274 418.999979,220.799987 418.999979,220.799987 L397.544337,220.799987 C397.544337,220.799987 393.399981,221.197274 393.399981,224.799987"/>
    <path fill="#474157" d="M442.999978,219.199987 L423.575679,219.199987 C423.575679,215.597196 419.799979,215.199987 419.799979,215.199987 L439.224279,215.199987 C439.224279,215.199987 442.999978,215.597196 442.999978,219.199987"/>
    <path fill="#AE767A" d="M422.880205 200.799988L438.318874 200.799988C438.69414 200.799988 438.999978 201.160479 438.999978 201.599472 438.999978 202.039497 438.69414 202.399988 438.318874 202.399988L422.880205 202.399988C422.505817 202.399988 422.199979 202.039497 422.199979 201.599472 422.199979 201.160479 422.505817 200.799988 422.880205 200.799988M422.880205 207.999988L438.318874 207.999988C438.69414 207.999988 438.999978 208.359678 438.999978 208.799988 438.999978 209.240298 438.69414 209.599988 438.318874 209.599988L422.880205 209.599988C422.505817 209.599988 422.199979 209.240298 422.199979 208.799988 422.199979 208.358644 422.505817 207.999988 422.880205 207.999988M422.880205 222.399987L438.318874 222.399987C438.69414 222.399987 438.999978 222.760477 438.999978 223.19947 438.999978 223.639496 438.69414 223.999987 438.318874 223.999987L422.880205 223.999987C422.505817 223.999987 422.199979 223.639496 422.199979 223.19947 422.199979 222.760477 422.505817 222.399987 422.880205 222.399987"/>
    <path fill="#474157" d="M401.269563 200.799988L415.931261 200.799988C416.299315 200.799988 416.599981 201.160479 416.599981 201.599472L416.599981 201.600504C416.599981 202.039497 416.299315 202.399988 415.931261 202.399988L401.269563 202.399988C400.900645 202.399988 400.599981 202.04053 400.599981 201.600504L400.599981 201.599472C400.599981 201.160479 400.900645 200.799988 401.269563 200.799988M401.269563 215.999987L415.931261 215.999987C416.299315 215.999987 416.599981 216.360478 416.599981 216.799471L416.599981 216.800504C416.599981 217.240529 416.299315 217.599987 415.931261 217.599987L401.269563 217.599987C400.900645 217.599987 400.599981 217.240529 400.599981 216.800504L400.599981 216.799471C400.599981 216.360478 400.900645 215.999987 401.269563 215.999987M401.269563 227.199986L415.931261 227.199986C416.299315 227.199986 416.599981 227.560477 416.599981 228.000503 416.599981 228.440529 416.299315 228.799986 415.931261 228.799986L401.269563 228.799986C400.900645 228.799986 400.599981 228.440529 400.599981 228.000503 400.599981 227.560477 400.900645 227.199986 401.269563 227.199986"/>
    <path fill="#2F2E41" d="M195.213776,143.7346 L167.589699,143.617516 L167.586211,145.066148 L195.209417,145.183232 L195.213776,143.7346 Z M166.899206,142.399992 L195.906884,142.520902 C196.28962,142.520902 196.599993,142.793334 196.599993,143.128516 L196.593018,145.792377 C196.593018,146.12756 196.282645,146.399992 195.900781,146.399992 L166.892231,146.279846 C166.510368,146.279846 166.200866,146.007414 166.199995,145.672232 L166.206969,143.008371 C166.206969,142.672423 166.51647,142.400757 166.899206,142.399992 L166.899206,142.399992 Z"/>
    <path fill="#2F2E41" d="M168.061784,144.874249 L130.285482,187.63351 L131.538207,188.725731 L169.314509,145.96647 L168.061784,144.874249 Z M128.772177,187.240871 L167.471075,143.437485 C167.724613,143.148907 168.166544,143.119175 168.457057,143.371024 L170.760908,145.378822 C171.051421,145.630671 171.081352,146.069658 170.827814,146.358235 L132.128916,190.162496 C131.875378,190.451073 131.433447,190.480805 131.142054,190.228956 L128.839083,188.220284 C128.54857,187.968435 128.518639,187.530322 128.772177,187.240871 L128.772177,187.240871 Z"/>
    <path fill="#444053" d="M166.946705,141.629191 C168.918621,141.378109 170.720726,142.774092 170.970973,144.746994 C171.221221,146.719084 169.825361,148.520536 167.853445,148.770805 C165.880717,149.021887 164.079425,147.625092 163.829177,145.653814 C163.578118,143.680912 164.97479,141.87946 166.946705,141.629191"/>
    <path fill="#2F2E41" d="M157.493575,235.217328 L131.036448,186.327436 L132.50697,185.58267 L158.964097,234.472562 L157.493575,235.217328 Z M129.479115,186.353732 L156.581623,236.437115 C156.759629,236.767934 157.179653,236.895172 157.520758,236.723825 L160.225046,235.354745 C160.566151,235.18255 160.69856,234.776237 160.52143,234.445418 L133.418045,184.362034 C133.240916,184.032064 132.820015,183.904826 132.479787,184.076173 L129.775499,185.445253 C129.433517,185.6166 129.301109,186.023762 129.479115,186.353732 L129.479115,186.353732 Z"/>
    <path fill="#444053" d="M156.517786 237.362764C158.374934 238.071145 160.454679 237.139364 161.163093 235.282302 161.870694 233.424427 160.939683 231.345589 159.082535 230.637208 157.225387 229.928827 155.144829 230.860608 154.437228 232.717671 153.728815 234.574733 154.660638 236.654383 156.517786 237.362764M130.946616 182.429172C132.918576 182.178112 134.720722 183.574785 134.970975 185.545888 135.221228 187.518616 133.825337 189.319908 131.853377 189.570968 129.880604 189.821215 128.079271 188.425356 127.829018 186.452628 127.578766 184.480712 128.974656 182.679419 130.946616 182.429172"/>
    <path fill="#444053" d="M122.925791,242.399986 L175.0742,242.399986 C177.673555,242.399986 179.799994,240.240157 179.799994,237.600844 L179.799994,237.599986 C179.799994,234.960672 177.673555,232.799986 175.0742,232.799986 L122.925791,232.799986 C120.326436,232.799986 118.199997,234.960672 118.199997,237.599986 L118.199997,237.600844 C118.199997,240.240157 120.326436,242.399986 122.925791,242.399986"/>
    <path fill="#2F2E41" d="M142.12579,242.399986 L194.274199,242.399986 C196.873554,242.399986 198.999993,240.240157 198.999993,237.600844 L198.999993,237.599986 C198.999993,234.960672 196.873554,232.799986 194.274199,232.799986 L142.12579,232.799986 C139.526435,232.799986 137.399996,234.960672 137.399996,237.599986 L137.399996,237.600844 C137.399996,240.240157 139.526435,242.399986 142.12579,242.399986"/>
    <path fill="#FFF" d="M189.592668,152.799991 L203.607318,152.799991 C207.673504,152.799991 210.999992,149.560201 210.999992,145.599991 L182.199994,145.599991 C182.199994,149.560201 185.526482,152.799991 189.592668,152.799991"/>
    <path fill="#F2D1D1" d="M190.1236,150.399991 L199.077302,150.399991 C201.674873,150.399991 203.799992,148.599642 203.799992,146.399991 L185.399993,146.399991 C185.399993,148.599642 187.526028,150.399991 190.1236,150.399991"/>
    <path fill="#444053" d="M183.927244,141.599992 L207.672741,141.599992 C210.822467,141.599992 213.399992,144.480284 213.399992,147.999991 L178.199994,147.999991 C178.199994,144.480284 180.776646,141.599992 183.927244,141.599992"/>
    <path fill="#C0BCCF" d="M185.344387,141.599992 L195.855599,141.599992 C198.904762,141.599992 201.399992,144.480284 201.399992,147.999991 L179.799994,147.999991 C179.799994,144.480284 182.29438,141.599992 185.344387,141.599992"/>
    <path fill="#B07473" d="M217.533761,230.399986 L191.666224,230.399986 C190.602281,230.399986 189.636153,230.805046 188.935152,231.456977 C188.235009,232.109707 187.799993,233.010106 187.799993,233.999986 C187.799993,234.990665 188.235009,235.891863 188.935152,236.542995 C189.636153,237.194926 190.602281,237.599986 191.666224,237.599986 L217.533761,237.599986 C218.597703,237.599986 219.56469,237.194926 220.264833,236.542995 C220.965834,235.891863 221.399991,234.990665 221.399991,233.999986 C221.399991,233.010106 220.965834,232.109707 220.264833,231.456977 C219.56469,230.805046 218.597703,230.399986 217.533761,230.399986"/>
    <path fill="#FFF" d="M160.599995,231.999986 L193.230627,231.999986 C195.083312,231.999986 196.599995,233.619579 196.599995,235.599082 C196.599995,237.579488 195.083312,239.199986 193.230627,239.199986 L160.599995,239.199986 L160.599995,231.999986 Z"/>
    <path fill="#E1E7EF" d="M160.252893 230.399986C160.002721 230.399986 159.799995 230.587736 159.799995 230.820226 159.799995 231.051118 160.002721 231.238868 160.252893 231.238868L193.511974 231.238868C194.331503 231.238868 195.076843 231.549653 195.617732 232.049786 196.157759 232.551517 196.493335 233.240998 196.493335 233.999986 196.493335 234.759773 196.157759 235.450053 195.617732 235.950186 195.076843 236.451118 194.331503 236.761104 193.511974 236.761104L160.252893 236.761104C160.002721 236.761104 159.799995 236.949653 159.799995 237.181344 159.799995 237.412236 160.002721 237.599986 160.252893 237.599986L193.511974 237.599986C194.581675 237.599986 195.553033 237.194926 196.257828 236.542995 196.962623 235.891863 197.399993 234.990665 197.399993 233.999986 197.399993 233.010106 196.962623 232.109707 196.257828 231.456977 195.553033 230.805046 194.581675 230.399986 193.511974 230.399986L160.252893 230.399986zM217.250359 233.999986C217.250359 233.010106 216.817983 232.109707 216.119859 231.456977 215.421734 230.805046 214.458715 230.399986 213.399992 230.399986L216.749624 230.399986C217.808347 230.399986 218.771366 230.805046 219.468636 231.456977 220.166761 232.109707 220.599991 233.010106 220.599991 233.999986 220.599991 234.990665 220.166761 235.891863 219.468636 236.542995 218.771366 237.195725 217.808347 237.599986 216.749624 237.599986L213.399992 237.599986C214.458715 237.599986 215.421734 237.195725 216.119859 236.542995 216.817983 235.891863 217.250359 234.990665 217.250359 233.999986"/>
    <path fill="#E1E7EF" d="M212.45036,233.999986 C212.45036,233.010106 212.017129,232.109707 211.319859,231.456977 C210.621734,230.805046 209.659569,230.399986 208.599992,230.399986 L211.949624,230.399986 C213.008347,230.399986 213.971366,230.805046 214.669491,231.456977 C215.366761,232.109707 215.799992,233.010106 215.799992,233.999986 C215.799992,234.990665 215.366761,235.891863 214.669491,236.542995 C213.971366,237.195725 213.008347,237.599986 211.949624,237.599986 L208.599992,237.599986 C209.659569,237.599986 210.621734,237.195725 211.319859,236.542995 C212.017129,235.891863 212.45036,234.990665 212.45036,233.999986"/>
    <path fill="#CB919B" d="M167.114124,223.199987 L189.285864,223.199987 C190.197963,223.199987 191.026916,223.605055 191.627423,224.257361 C192.227091,224.909667 192.599993,225.810123 192.599993,226.799986 C192.599993,227.790762 192.227091,228.690306 191.627423,229.342612 C191.026916,229.994918 190.197963,230.399986 189.285864,230.399986 L167.114124,230.399986 C166.202024,230.399986 165.373912,229.994918 164.773405,229.342612 C164.172897,228.690306 163.799995,227.790762 163.799995,226.799986 C163.799995,225.810123 164.172897,224.909667 164.773405,224.257361 C165.373912,223.605055 166.202024,223.199987 167.114124,223.199987"/>
    <path fill="#FFF" d="M218.999991,224.799987 L189.269875,224.799987 C187.581704,224.799987 186.199993,226.239138 186.199993,227.999527 C186.199993,229.759917 187.581704,231.199986 189.269875,231.199986 L218.999991,231.199986 L218.999991,224.799987 Z"/>
    <path fill="#FFCED8" d="M218.605515 223.199987C218.82295 223.199987 218.999991 223.387924 218.999991 223.619652 218.999991 223.850468 218.82295 224.038405 218.605515 224.038405L189.591289 224.038405C188.876246 224.038405 188.225661 224.349505 187.754695 224.850367 187.28287 225.350316 186.989806 226.040939 186.989806 226.799986 186.989806 227.559034 187.28287 228.249657 187.754695 228.750519 188.225661 229.250468 188.876246 229.561568 189.591289 229.561568L218.605515 229.561568C218.82295 229.561568 218.999991 229.749505 218.999991 229.981233 218.999991 230.212049 218.82295 230.399986 218.605515 230.399986L189.591289 230.399986C188.657952 230.399986 187.809699 229.994918 187.196068 229.342612 186.581579 228.690306 186.199993 227.790762 186.199993 226.799986 186.199993 225.810123 186.581579 224.909667 187.196068 224.257361 187.809699 223.605055 188.657952 223.199987 189.591289 223.199987L218.605515 223.199987zM167.149195 226.800443C167.149195 225.810454 167.582483 224.908972 168.280233 224.257495 168.977983 223.605106 169.941171 223.199987 170.999994 223.199987L167.650794 223.199987C166.591971 223.199987 165.627807 223.605106 164.931033 224.257495 164.233283 224.908972 163.799995 225.810454 163.799995 226.800443 163.799995 227.790431 164.233283 228.691001 164.931033 229.34339 165.627807 229.995779 166.591971 230.399986 167.650794 230.399986L170.999994 230.399986C169.941171 230.399986 168.977983 229.995779 168.280233 229.34339 167.582483 228.691001 167.149195 227.790431 167.149195 226.800443"/>
    <path fill="#FFCED8" d="M171.949195,226.800443 C171.949195,225.810454 172.382483,224.908972 173.080233,224.257495 C173.777983,223.605106 174.741171,223.199987 175.799994,223.199987 L172.450794,223.199987 C171.390995,223.199987 170.427807,223.605106 169.731033,224.257495 C169.033283,224.908972 168.599994,225.810454 168.599994,226.800443 C168.599994,227.790431 169.033283,228.691001 169.731033,229.34339 C170.427807,229.995779 171.390995,230.399986 172.450794,230.399986 L175.799994,230.399986 C174.741171,230.399986 173.777983,229.995779 173.080233,229.34339 C172.382483,228.691001 171.949195,227.790431 171.949195,226.800443"/>
    <path fill="#585268" d="M370.892707,239.999986 L260.327657,239.999986 C258.396222,239.999986 256.722312,238.380073 256.606341,236.399986 L256.606341,236.399112 C256.490369,234.419899 257.976679,232.799986 259.907261,232.799986 L370.472311,232.799986 C372.402893,232.799986 374.078509,234.419899 374.193627,236.399112 L374.193627,236.399986 C374.309599,238.380073 372.824142,239.999986 370.892707,239.999986"/>
    <path fill="#474059" d="M371.315071 240.799986L260.484066 240.799986C259.230091 240.799986 258.08382 239.998544 257.399989 238.800501 257.964149 237.601428 259.030925 236.799986 260.2849 236.799986L371.115906 236.799986C372.36988 236.799986 373.516151 237.601428 374.199982 238.800501 373.634967 239.998544 372.569046 240.799986 371.315071 240.799986M374.390489 232.799986L284.960735 232.799986C282.405623 232.799986 280.447251 230.709362 280.609371 228.15492L284.270001 170.244194C284.431258 167.689752 286.653507 165.59999 289.20948 165.59999L378.638373 165.59999C381.194346 165.59999 383.152719 167.689752 382.990599 170.244194L379.329969 228.15492C379.168711 230.709362 376.946463 232.799986 374.390489 232.799986"/>
    <path fill="#FFF" d="M372.908973,232.799986 L287.301199,232.799986 C284.780972,232.799986 282.849336,230.709362 283.009242,228.15492 L286.619895,170.244194 C286.778951,167.689752 288.97086,165.59999 291.491087,165.59999 L377.098862,165.59999 C379.619089,165.59999 381.549874,167.689752 381.390818,170.244194 L377.780165,228.15492 C377.621109,230.709362 375.4292,232.799986 372.908973,232.799986"/>
    <path fill="#C0BCCF" d="M297.452582,165.59999 L377.864935,230.134332 C378.186045,229.532577 378.38867,228.861853 378.432458,228.155783 L378.999982,219.150149 L312.27345,165.59999 L297.452582,165.59999 Z M368.80602,232.799986 L359.91453,232.799986 L286.199987,173.640057 L286.412916,170.244194 C286.47731,169.229487 286.864531,168.288921 287.468115,167.522502 L368.80602,232.799986 Z"/>
    <path fill="#FFF" d="M280.386491,239.999986 L259.648264,239.999986 C257.653916,239.999986 255.926244,238.380073 255.806548,236.399986 L255.806548,236.399112 C255.686852,234.419899 257.220018,232.799986 259.213486,232.799986 L279.952593,232.799986 C281.94606,232.799986 283.674613,234.419899 283.793429,236.399112 L283.793429,236.399986 C283.913125,238.380073 282.379959,239.999986 280.386491,239.999986"/>
    <path fill="#FEC5D9" d="M371.751575,234.399986 L280.057551,234.399986 C279.095508,234.399986 278.260945,233.500739 278.203155,232.400472 L278.203155,232.400472 C278.145364,231.300205 278.885593,230.399986 279.847635,230.399986 L371.541659,230.399986 C372.504551,230.399986 373.339115,231.300205 373.396905,232.400472 L373.396905,232.400472 C373.453846,233.500739 372.713617,234.399986 371.751575,234.399986"/>
    <path fill="#2F2E41" d="M267.992817,160.96057 C267.311591,157.573833 267.481898,155.677671 268.134026,152.463779 L253.582662,151.235038 L273.835443,142.360898 C273.835443,142.360898 278.133328,137.088267 280.159034,131.909759 C282.18474,126.730396 276.69043,113.559943 274.625357,110.292999 C272.560284,107.0252 268.270956,107.513787 265.445922,109.281599 C265.445922,109.281599 261.203664,102.890609 256.139827,102.462774 C251.075134,102.035796 234.97903,103.519525 230.302876,115.330321 C225.627577,127.140262 233.150161,138.945924 225.619875,151.095564 C225.619875,151.095564 224.956621,152.632345 225.933958,153.926972 C226.91215,155.221599 238.784824,169.056907 265.843874,163.482225 C265.843874,163.482225 268.00052,162.981659 267.992817,160.959714 L267.992817,160.96057 Z"/>
    <path fill="#5A5773" d="M247.626298,165.599992 C249.136359,149.11076 250.19999,134.778407 250.19999,134.778407 L248.801753,130.13249 C248.801753,130.13249 236.180349,140.337549 227.219672,129.599992 C227.645298,136.966506 228.697659,144.383321 224.022712,151.931092 C224.022712,151.931092 223.3509,153.488692 224.340848,154.800858 L224.38159,154.853761 L224.39546,154.871973 L224.430134,154.916204 L224.466542,154.960434 L224.48908,154.989054 L224.553227,155.06624 L224.557562,155.070576 L224.635578,155.162506 L224.65725,155.188524 L224.722264,155.263108 L224.777743,155.326418 L224.819352,155.37325 L224.913839,155.479056 L224.925975,155.491198 L225.042133,155.61695 L225.068139,155.64557 L225.168694,155.752243 L225.238042,155.82596 L225.303923,155.893607 L225.350734,155.941306 L225.449555,156.041908 L225.604722,156.198015 L225.711345,156.302954 L225.792829,156.383609 C228.415065,158.921214 234.52379,163.61483 244.815955,165.24528 L244.845428,165.249617 C245.738289,165.390113 246.662356,165.50806 247.618496,165.599123 L247.626298,165.599992 Z"/>
    <path fill="#5A5773" d="M267.610476,162.423746 C266.705516,157.657724 267.338402,155.740858 268.599991,149.373461 L245.949198,145.599991 L236.051564,147.631178 C236.051564,147.631178 235.186787,153.502299 232.599991,160.605249 C238.625802,164.554187 249.27185,168.576681 265.50839,165.035398 C265.50839,165.035398 267.618011,164.516967 267.610476,162.422859 L267.610476,162.423746 Z"/>
    <path fill="#CB919B" d="M237.099375,163.079942 C243.545122,165.060075 252.35873,167.426287 259.956549,171.083927 C260.481783,171.336818 259.412371,173.31695 259.898859,173.581642 C260.641937,173.984581 261.876668,174.921962 263.233668,176.235307 C266.782876,179.671246 274.00442,206.56278 273.359501,209.24089 C272.322808,213.550987 263.198365,225.390478 263.198365,225.390478 C261.386737,228.817144 259.139422,233.807517 256.934298,239.199986 L211.615168,239.199986 C214.771741,229.154332 215.947061,222.349891 216.030582,216.216453 L216.031443,216.216453 C218.450966,195.366474 206.999992,190.830461 206.999992,190.830461 L218.859099,163.509013 C223.473414,161.909059 232.674489,162.510939 232.674489,162.510939 C235.106928,162.509253 234.920943,162.410626 237.099375,163.079942"/>
    <path fill="#FFCED8" d="M256.294134,240.799986 L250.123521,240.799986 C251.273918,237.641816 256.622225,222.703608 257.765977,219.515596 C252.56635,218.587074 245.408971,217.313234 244.146441,217.004579 C242.883912,216.695924 238.052245,219.530944 238.052245,219.530944 L238.58882,216.307122 L233.399991,221.671064 L242.271751,204.664357 C242.271751,204.664357 256.748478,208.020338 259.824232,208.595868 C262.899991,209.170546 261.024466,208.733143 261.595927,208.686248 C263.306156,203.746919 260.505334,202.365646 260.838409,199.974851 C261.170654,197.584055 261.268666,174.39999 261.268666,174.39999 C263.140033,175.395018 263.984765,177.557306 265.042964,180.969561 C265.739847,183.214556 269.436068,197.9703 270.966054,206.697897 C271.330693,208.774069 271.618084,210.328428 271.799988,211.56731 C268.370394,220.543877 260.670626,229.582687 256.294134,240.799986"/>
    <path fill="#B96B6B" d="M247.322891,136.799992 L245.041517,143.437742 C245.041517,143.437742 241.591316,159.099378 240.793052,161.131702 C240.515131,161.835972 239.602581,162.051446 238.19999,162.018747 C240.219028,164.818223 244.139356,169.089959 249.808594,170.130435 C253.427625,170.794462 255.958349,170.140496 257.67609,169.159548 C256.466571,168.539957 255.309001,167.804665 255.314196,167.201005 C255.363546,161.856094 256.311594,152.448213 259.302922,150.708497 C262.72888,148.716418 247.322891,136.799992 247.322891,136.799992"/>
    <path fill="#FFF" d="M240.62737,162.523407 C239.824803,162.629072 238.72876,162.553839 237.39999,162.39999 C238.77753,164.361978 241.002129,166.566573 244.569188,168.799908 C253.402556,174.328302 257.654962,171.315581 258.999989,169.894598 C258.173465,169.47701 257.335818,168.994332 256.847262,168.529406 C248.604268,172.509173 240.62737,162.523407 240.62737,162.523407 Z"/>
    <path fill="#3F3D56" d="M258.970667,170.41123 C258.970667,170.41123 262.551167,206.000655 262.116324,209.006458 C261.68148,212.01312 255.989382,226.822217 250.99999,239.999986 L259.579448,239.999986 C261.273597,236.774267 262.568561,234.256403 262.804246,233.649916 C262.956441,233.257332 263.550437,232.119096 264.365333,230.627792 C265.831625,227.946708 268.021496,224.124812 269.671291,221.448883 C274.931156,212.918554 274.917241,214.910682 273.096987,204.919975 C271.494154,196.126778 266.577816,179.856443 265.848149,177.594575 C264.740168,174.155813 259.899493,170.160389 258.970667,170.41123"/>
    <path fill="#2F2E41" d="M258.933806,219.316731 C257.766317,222.710045 256.408552,226.575199 254.999989,230.542422 C257.582929,230.774314 259.644975,231.042914 260.375086,231.34106 C262.957164,232.396658 263.227512,233.599986 263.227512,233.599986 C263.378184,233.190819 263.965372,232.004502 264.77211,230.450203 C266.224583,227.654972 268.391669,223.672528 270.025808,220.883564 C271.591931,218.208308 272.684514,216.527767 273.399988,215.199987 C272.397808,216.114123 270.799829,217.494727 270.021504,217.740048 C269.081314,218.037299 261.843918,218.955016 258.933806,219.316731"/>
    <path fill="#3F3D56" d="M234.688435,161.295109 C234.688435,161.295109 241.149768,192.880812 242.036031,202.061407 C242.922293,211.242866 240.075303,217.814122 236.87415,224.713379 C235.794552,227.037876 232.335049,232.972117 228.073118,239.999986 L208.176695,239.999986 L210.305094,190.384546 L204.599992,189.050097 C204.938757,186.558147 205.215928,184.493463 205.405841,183.047665 L216.638962,163.007623 C216.638962,163.007623 220.872662,159.542026 234.688435,161.295109"/>
    <path fill="#2F2E41" d="M222.593345,176.262868 C219.419507,189.010438 221.623228,194.29733 221.623228,194.29733 L223.323927,186.365281 C223.323927,186.365281 224.932233,198.073438 226.721045,199.566258 C227.609036,200.307962 238.18536,202.336315 242.148808,203.074598 C242.422562,208.04154 241.573068,212.241112 240.200875,216.190027 C237.356398,216.482602 220.243336,214.071848 219.425495,219.600842 C219.01743,222.358068 219.108967,213.486697 219.108967,213.486697 L218.096932,239.199986 L208.177618,239.199986 L210.306057,190.025898 L204.599992,188.703319 L204.615391,188.587829 L204.631645,188.474049 L204.647044,188.359414 L204.663298,188.245635 L204.678697,188.132711 L204.694095,188.020643 L204.708638,187.908574 L204.724037,187.797361 L204.739436,187.687004 L204.753979,187.578357 L204.769378,187.468855 L204.769378,187.468855 L204.783921,187.360209 L204.79932,187.252418 L204.813007,187.146338 L204.813007,187.145482 L204.82755,187.039402 L204.842094,186.933322 L204.856637,186.828953 L204.87118,186.724584 L204.884868,186.62107 L204.898555,186.518412 L204.913099,186.415754 L204.913099,186.415754 L204.926786,186.314807 L204.926786,186.314807 L204.940474,186.21386 L204.940474,186.213004 L204.954162,186.113768 L204.966994,186.014532 L204.981537,185.916151 L204.994369,185.817771 L204.994369,185.817771 L205.007202,185.721101 L205.020034,185.624431 L205.033722,185.529473 L205.046554,185.434514 L205.046554,185.433658 L205.058531,185.340411 L205.071363,185.247163 L205.071363,185.246307 L205.084195,185.154771 L205.096172,185.062378 L205.109004,184.971697 L205.109004,184.970841 L205.120981,184.881871 L205.120981,184.881016 L205.132958,184.792045 L205.132958,184.79119 L205.144934,184.703075 L205.156911,184.61496 L205.168888,184.528556 L205.180865,184.442152 L205.191986,184.356604 L205.191986,184.355748 L205.203107,184.271911 L205.215084,184.188073 L205.215084,184.188073 L205.226205,184.105091 L205.237326,184.022965 L205.237326,184.022109 L205.248448,183.940838 L205.258713,183.860423 L205.269835,183.780863 L205.2801,183.702158 L205.2801,183.701303 L205.290366,183.623454 L205.300632,183.54646 L205.300632,183.545605 L205.310898,183.470322 L205.321164,183.394184 L205.321164,183.394184 L205.330574,183.320612 L205.34084,183.246185 L205.351105,183.173469 L205.351105,183.172614 L205.35966,183.101608 L205.35966,183.100753 L205.369071,183.030603 L205.369071,183.029748 L205.378481,182.960454 L205.378481,182.959598 L205.387891,182.891159 L205.387891,182.890304 L205.397301,182.821865 L205.397301,182.821865 L205.405856,182.754282 L211.489189,171.99999 L222.593345,176.262868 Z"/>
    <path fill="#444053" d="M208.129681,177.260822 C204.351801,187.138454 203.324374,221.013597 206.436822,239.199986 L223.012292,239.199986 C216.23287,203.100572 230.473116,177.27865 227.343811,168.130273 C222.335325,153.485739 210.613074,170.768836 208.129681,177.260822"/>
    <path fill="#5A5773" d="M272.028462,143.999991 L273.811378,143.141218 C273.811378,143.141218 276.82829,139.070516 278.999989,134.399992 C278.575239,135.287957 275.766419,140.690134 271.652525,137.387809 C267.180678,133.797344 266.999989,139.483896 266.999989,139.483896 C266.999989,139.483896 269.705191,142.863434 271.276589,143.653469 C271.480399,143.756107 271.735591,143.873812 272.028462,143.999991 L272.028462,143.999991 Z"/>
    <path fill="#B96B6B" d="M269.893936 141.625781C267.257847 141.353384 264.899793 143.269836 264.625788 145.905964 264.353394 148.542899 266.269011 150.900989 268.9051 151.174192 271.541995 151.446589 273.900855 149.530943 274.174054 146.894815 274.447254 144.258686 272.530831 141.898985 269.893936 141.625781M234.768978 138.399992C234.649699 138.405637 234.531227 138.41612 234.413561 138.429828L234.409531 138.430635 234.410337 138.430635C232.23915 138.697552 230.460453 140.432914 230.225926 142.702109 229.952714 145.340634 231.869226 147.700952 234.505437 147.97432 237.142454 148.246075 239.501424 146.329274 239.77383 143.692362 239.933405 142.158599 239.352326 140.719184 238.32073 139.729737 238.323148 141.152218 237.951612 142.881935 236.13423 142.904515L236.419531 140.150675C236.53478 139.035431 235.537033 138.433054 234.768978 138.399992"/>
    <path fill="#FFB9B9" d="M256.376488,114.492466 L256.376488,114.492466 C246.969069,113.509776 238.476261,120.472839 237.501801,129.967074 L235.89175,145.656087 C234.91729,155.151173 241.816906,163.723125 251.224324,164.707517 C260.6309,165.690208 269.124551,158.727145 270.099011,149.232059 L271.708219,133.543046 C272.682679,124.04796 265.783906,115.476008 256.376488,114.492466"/>
    <path fill="#B96B6B" d="M237.220093,131.674212 L235.891599,144.860321 C235.076463,152.962242 239.780142,160.403384 246.85252,163.19999 C236.844979,158.935274 241.975192,141.041327 241.975192,141.041327 C244.001652,140.685789 247.198131,136.800023 249.056,134.538457 C250.913869,132.277759 252.35279,129.995381 255.558542,130.062153 C258.765136,130.128924 265.541637,131.860652 265.541637,131.860652 C266.957799,135.306766 269.563367,137.813739 271.05118,139.041645 L271.708684,132.515362 C271.904249,130.565108 271.781178,128.654744 271.382461,126.836299 C270.967728,126.585689 270.542036,126.332476 270.092742,126.07146 C256.321414,118.106551 244.632181,124.550453 237.220093,131.674212"/>
    <path fill="#5A5773" d="M269.399988 128.264915L266.443473 129.599992C266.443473 129.599992 263.690392 127.797972 260.482049 128.581293 260.482049 128.581293 253.990979 126.043599 250.55142 127.456818 247.112758 128.870989 249.135448 123.792742 249.765466 123.569752 250.39638 123.346763 256.910751 122.907455 259.754347 123.488752 262.597046 124.070049 266.875435 124.77904 266.875435 124.77904L269.399988 128.264915zM235.464385 135.199992L237.193702 135.534938C237.193702 135.534938 238.394936 141.552281 234.99999 141.599992L235.313125 138.2739C235.334355 138.042164 235.319317 137.829902 235.277743 137.63614L235.464385 135.199992z"/>
    <path fill="#2F2E41" d="M261.465386,127.211494 C258.885452,123.817929 254.668068,123.123695 251.389709,127.889701 C248.395219,132.244059 243.945893,139.780254 236.460536,139.164469 L236.423321,139.03119 L236.441496,139.032877 L236.862109,134.170707 C236.862109,134.170707 236.232055,134.331823 235.466988,134.506436 C235.068012,131.966534 234.789334,128.745051 235.208216,125.793502 C236.075406,119.683735 244.79664,110.759071 254.635181,110.414907 C264.472857,110.070742 271.589529,115.765487 273.000227,119.01312 C274.41006,122.260752 275.799988,129.627395 275.799988,129.627395 L274.069935,132.040766 L272.20487,136.836296 C267.679383,132.546047 268.144135,128.487771 266.176946,126.443028 C265.112431,125.336303 263.519986,125.332928 261.465386,127.211494"/>
    <path fill="#5A5773" d="M249.39999,129.599992 C246.566255,133.888107 242.499061,139.703088 236.126049,139.165214 L236.090524,139.033844 L236.107873,139.036323 L236.509388,134.273954 C236.509388,134.273954 235.907942,134.431764 235.177615,134.602793 C235.114001,134.192158 235.054517,133.761694 234.99999,133.316358 C242.197512,135.405885 249.376857,129.618169 249.39999,129.599992"/>
    <path fill="#5F5D7E" d="M256.419143 168.533317C256.419143 168.533317 261.147873 206.743617 261.054332 207.98351 260.960791 209.224281 259.704666 215.199987 259.704666 215.199987 259.704666 215.199987 261.987071 211.43029 262.546537 208.305549 263.106893 205.180807 264.599989 184.042952 264.599989 184.042952L262.080612 182.710922 264.413797 182.573156 260.563463 170.702472C260.563463 170.702472 260.122483 169.821472 259.515802 169.476619 258.90912 169.131765 256.698876 168.040168 256.664132 168.022618 256.629388 168.005945 256.075268 167.947154 255.799989 168.126162 255.799989 168.126162 256.257896 168.434161 256.419143 168.533317M235.160576 161.246339C235.160576 161.246339 241.904193 193.209583 242.829175 202.499914 243.207739 206.309159 242.932744 209.67293 242.244365 212.79999 243.487198 203.295654 229.816038 180.932825 229.816038 180.932825L233.368647 179.285443 228.599991 177.18123C228.599991 177.18123 230.797269 165.151667 230.938338 163.140043 231.074049 161.183448 230.014249 160.82008 229.954428 160.79999 231.52404 160.869869 233.254363 161.012246 235.160576 161.246339"/>
    <path fill="#AEB8CF" d="M4.5,239 C6.98422713,239 9,240.119217 9,241.5 C9,242.880126 6.98422713,244 4.5,244 C2.01458991,244 0,242.880126 0,241.5 C0,240.119217 2.01458991,239 4.5,239 M29.7510216,248.549082 L37.7565979,248.549082 C40.9481737,248.549082 43.5597932,247.351489 43.5597932,245.88727 C43.5597932,244.423607 40.9481737,243.225459 37.7565979,243.225459 L16.605749,243.225459 C14.0752507,243.225459 12,242.27505 12,241.113007 C12,239.950964 14.0728292,239 16.605749,239 L575.394251,239 C577.927171,239 580,239.950964 580,241.113007 C580,242.27505 577.924749,243.225459 575.394251,243.225459 L546.38675,243.225459 C543.195174,243.225459 540.584765,244.423607 540.584765,245.88727 C540.584765,247.351489 543.195174,248.549082 546.38675,248.549082 L553.185194,248.549082 C558.251033,248.549082 562.395481,250.451011 562.395481,252.774541 C562.395481,255.098627 558.247401,257 553.185194,257 L29.7510216,257 C24.690025,257 20.5407343,255.098627 20.5407343,252.774541 C20.5407343,250.451011 24.685182,248.549082 29.7510216,248.549082"/>
    <path fill="#474059" d="M278.720819,69.244526 L308.878285,69.244526 C309.999513,69.244526 311.018969,69.7046883 311.758336,70.44548 C312.498572,71.1871432 312.95698,72.2085642 312.95698,73.3310815 L312.95698,87.2902114 C312.95698,88.4136002 312.498572,89.4350212 311.758336,90.1758129 C311.018969,90.9166046 309.999513,91.376767 308.878285,91.376767 L282.668168,91.376767 L274.642124,99.4182786 L274.642124,73.3310815 C274.642124,72.2085642 275.101402,71.1871432 275.840768,70.44548 C276.580135,69.7046883 277.599591,69.244526 278.720819,69.244526 M308.878285,67.9999959 L278.720819,67.9999959 C277.256873,67.9999959 275.926883,68.5996015 274.962227,69.5661167 C273.99844,70.5317605 273.399988,71.8651855 273.399988,73.3310815 L273.399988,99.6509743 C273.399988,99.8827986 273.468706,100.102422 273.593093,100.289798 C273.717481,100.473689 273.892319,100.620976 274.107171,100.709871 L274.10978,100.709871 C274.326371,100.800509 274.55253,100.821425 274.767382,100.778721 C274.987452,100.735145 275.190995,100.627948 275.356266,100.462359 L283.182245,92.621297 L308.878285,92.621297 C310.342231,92.621297 311.673091,92.0216915 312.636877,91.0551762 C313.600664,90.0895325 314.199986,88.756979 314.199986,87.2902114 L314.199986,73.3310815 C314.199986,71.864314 313.600664,70.5317605 312.636877,69.5661167 C311.673091,68.5996015 310.342231,67.9999959 308.878285,67.9999959"/>
    <path fill="#474059" d="M309.062249 74.2247956C309.248437 74.2247956 309.399986 73.9447956 309.399986 73.6007956 309.399986 73.2551956 309.248437 72.9751957 309.062249 72.9751957L278.537725 72.9751957C278.351537 72.9751957 278.199988 73.2551956 278.199988 73.6007956 278.199988 73.9447956 278.351537 74.2247956 278.537725 74.2247956L309.062249 74.2247956zM301.523998 78.0495953C301.711047 78.0495953 301.861726 77.7695954 301.861726 77.4239954 301.861726 77.0799954 301.711047 76.7999954 301.523998 76.7999954L278.538582 76.7999954C278.351532 76.7999954 278.199988 77.0799954 278.199988 77.4239954 278.199988 77.7695954 278.351532 78.0495953 278.538582 78.0495953L301.523998 78.0495953zM309.062258 78.0495953C309.248441 78.0495953 309.399986 77.7695954 309.399986 77.4239954 309.399986 77.0799954 309.248441 76.7999954 309.062258 76.7999954L305.82873 76.7999954C305.642546 76.7999954 305.491002 77.0799954 305.491002 77.4239954 305.491002 77.7695954 305.642546 78.0495953 305.82873 78.0495953L309.062258 78.0495953zM309.062249 80.6247952C309.248437 80.6247952 309.399986 80.3447952 309.399986 79.9991952 309.399986 79.6551953 309.248437 79.3751953 309.062249 79.3751953L278.537725 79.3751953C278.351537 79.3751953 278.199988 79.6551953 278.199988 79.9991952 278.199988 80.3447952 278.351537 80.6247952 278.537725 80.6247952L309.062249 80.6247952zM300.254985 85.4247949C300.446063 85.4247949 300.599987 85.1447949 300.599987 84.7991949 300.599987 84.455195 300.446063 84.175195 300.254985 84.175195L277.745874 84.175195C277.554796 84.175195 277.399988 84.455195 277.399988 84.7991949 277.399988 85.1447949 277.554796 85.4247949 277.745874 85.4247949L300.254985 85.4247949zM289.884346 87.8247948C290.058716 87.8247948 290.199988 87.5447948 290.199988 87.1991948 290.199988 86.8551948 290.058716 86.5751948 289.884346 86.5751948L278.515629 86.5751948C278.341259 86.5751948 278.199988 86.8551948 278.199988 87.1991948 278.199988 87.5447948 278.341259 87.8247948 278.515629 87.8247948L289.884346 87.8247948zM297.878116 87.8247948C298.055558 87.8247948 298.199987 87.5447948 298.199987 87.1991948 298.199987 86.8551948 298.055558 86.5751948 297.878116 86.5751948L293.722683 86.5751948C293.544416 86.5751948 293.399987 86.8551948 293.399987 87.1991948 293.399987 87.5447948 293.544416 87.8247948 293.722683 87.8247948L297.878116 87.8247948z"/>
  </g>
</svg>
