<?xml version="1.0" encoding="UTF-8"?>
<svg width="72px" height="64px" viewBox="0 0 72 64" version="1.1" xmlns="http://www.w3.org/2000/svg" xmlns:xlink="http://www.w3.org/1999/xlink">
    <!-- Generator: Sketch 63.1 (92452) - https://sketch.com -->
    <title>noun_chat_849822</title>
    <desc>Created with Sketch.</desc>
    <g id="Page-1" stroke="none" stroke-width="1" fill="none" fill-rule="evenodd">
        <g id="refresh" transform="translate(11.098053, 6.000000)" fill="#9E1D20" fill-rule="nonzero">
            <path d="M25.0090455,0 C11.2192923,0 0,11.2152344 0,25 C0,38.7847656 11.2192923,50 25.0090455,50 C38.7987988,50 50.018091,38.7847656 50.018091,25 C50.018091,11.2152344 38.7987988,0 25.0090455,0 Z M25.0090455,47.9166992 C12.3681453,47.9166992 2.08405456,37.6363281 2.08405456,25 C2.08405456,12.3636719 12.3681453,2.08330078 25.0090455,2.08330078 C37.6499457,2.08330078 47.9340365,12.3636719 47.9340365,25 C47.9340365,37.6363281 37.6499457,47.9166992 25.0090455,47.9166992 Z" id="Shape"></path>
            <path d="M40.9846479,24.0173828 C40.5694587,23.8739258 40.1033722,24.0041992 39.8255373,24.3490234 L35.6574282,29.5573242 C35.2982162,30.0069336 35.3714849,30.6621094 35.82028,31.022168 C36.2711267,31.3823242 36.9254649,31.3070312 37.2856538,30.859375 L39.1733483,28.5003906 C37.600123,34.8561523 31.8464795,39.5833984 25.0090455,39.5833984 C19.5922426,39.5833984 14.6496346,36.602832 12.110728,31.8044922 C11.8400246,31.2958984 11.2111839,31.1015625 10.7023084,31.3710937 C10.1935306,31.6396484 9.99912439,32.2703125 10.2687532,32.7790039 C13.1699978,38.2609375 18.8177437,41.6666992 25.0089478,41.6666992 C34.2021167,41.6666992 41.6816774,34.1898437 41.6816774,25 C41.6816774,24.5575195 41.4018887,24.1638672 40.9846479,24.0173828 Z" id="Path"></path>
            <path d="M14.3606629,20.4426758 C14.7198748,19.9930664 14.6466061,19.3378906 14.197811,18.977832 C13.7490158,18.6197266 13.0937007,18.6950195 12.7324372,19.140625 L10.8447427,21.4996094 C12.417968,15.1438477 18.1716115,10.4166016 25.0090455,10.4166016 C30.4258485,10.4166016 35.3684565,13.397168 37.9073631,18.1955078 C38.1769918,18.7041016 38.8038787,18.8984375 39.3157826,18.6289062 C39.8245604,18.3603516 40.0189666,17.7296875 39.7493379,17.2209961 C36.8480932,11.7390625 31.2003473,8.33330078 25.0091432,8.33330078 C15.8159744,8.33330078 8.33641363,15.8101563 8.33641363,25 C8.33641363,25.4424805 8.61630002,25.8362305 9.03344309,25.9827148 C9.14637456,26.0223633 9.26340907,26.0416992 9.37839207,26.0416992 C9.68875823,26.0416992 9.98994139,25.9023438 10.192456,25.6510742 L14.3606629,20.4426758 Z" id="Path"></path>
        </g>
    </g>
</svg>