<?xml version="1.0" encoding="UTF-8"?>
<svg width="21px" height="21px" viewBox="0 0 21 21" version="1.1" xmlns="http://www.w3.org/2000/svg" xmlns:xlink="http://www.w3.org/1999/xlink">
    <!-- Generator: Sketch 63.1 (92452) - https://sketch.com -->
    <title>Group 18 Copy 4</title>
    <desc>Created with Sketch.</desc>
    <g id="Page-1" stroke="none" stroke-width="1" fill="none" fill-rule="evenodd">
        <g id="noun_Search_1818289" transform="translate(1.000000, 0.000000)" fill="#9E1D20" fill-rule="nonzero" stroke="#FFFFFF">
            <path d="M19.626,17.824 L15.337,13.535 C16.378,12.124 17,10.387 17,8.5 C17,3.806 13.194,0 8.5,0 C3.806,0 0,3.806 0,8.5 C0,13.194 3.806,17 8.5,17 C10.387,17 12.124,16.378 13.534,15.337 L17.823,19.626 C18.073,19.875 18.399,20 18.725,20 C19.051,20 19.378,19.875 19.626,19.626 C20.125,19.129 20.125,18.321 19.626,17.824 Z M2.5,8.5 C2.5,5.192 5.192,2.5 8.5,2.5 C11.808,2.5 14.5,5.192 14.5,8.5 C14.5,11.808 11.808,14.5 8.5,14.5 C5.192,14.5 2.5,11.808 2.5,8.5 Z" id="Shape"></path>
        </g>
    </g>
</svg>