<?xml version="1.0" encoding="UTF-8"?>
<svg width="72px" height="64px" viewBox="0 0 72 64" version="1.1" xmlns="http://www.w3.org/2000/svg" xmlns:xlink="http://www.w3.org/1999/xlink">
    <!-- Generator: Sketch 63.1 (92452) - https://sketch.com -->
    <title>noun_chat_849822</title>
    <desc>Created with Sketch.</desc>
    <g id="Page-1" stroke="none" stroke-width="1" fill="none" fill-rule="evenodd">
        <g id="lock" transform="translate(17.197916, 7.000000)" fill="#9E1D20" fill-rule="nonzero">
            <path d="M37.2890881,6.30946272 L19.3479596,0.0595451134 C19.1211886,-0.0198483711 18.8718592,-0.0198483711 18.6450882,0.0595451134 L0.703959728,6.30946272 C0.282474353,6.45692171 0,6.85066652 0,7.29216461 L0,19.7919998 C0,35.9681537 2.43026884,41.8803805 18.5214129,49.8880874 C18.6708127,49.9623052 18.8336683,50 18.9965239,50 C19.1593795,50 19.3222352,49.9624028 19.4716349,49.8880874 C35.562779,41.8803805 37.9930478,35.9681537 37.9930478,19.7919998 L37.9930478,7.29216461 C37.9930478,6.85066652 37.7105735,6.45701937 37.2890881,6.30946272 Z M35.8823559,19.7919998 C35.8823559,35.2855456 33.8807951,40.3005185 18.996425,47.7904588 C4.11215379,40.3005185 2.1106919,35.2855456 2.1106919,19.7919998 L2.1106919,8.02965488 L18.9965239,2.14691994 L35.8823559,8.02965488 L35.8823559,19.7919998 L35.8823559,19.7919998 Z" id="Shape"></path>
            <path d="M11.6089649,17.6565402 L11.6089649,18.6964511 C10.4454217,18.6964511 9.49826196,19.6297095 9.49826196,20.7761755 L9.49826196,31.1749926 C9.49826196,32.3214586 10.4454217,33.254717 11.6089649,33.254717 L26.384083,33.254717 C27.5476261,33.254717 28.4947859,32.3214586 28.4947859,31.1749926 L28.4947859,20.7761755 C28.4947859,19.6297095 27.5476261,18.6964511 26.384083,18.6964511 L26.384083,17.6565402 C26.384083,13.6432268 23.0695681,10.3773585 18.9964745,10.3773585 C14.9233808,10.3773585 11.6089649,13.6432268 11.6089649,17.6565402 Z M26.384083,31.1748951 L11.6089649,31.1748951 L11.6089649,20.7761755 C11.6089649,20.7761755 11.6079754,20.7761755 11.6068871,20.7761755 L11.6089649,19.7362646 L11.6089649,20.7761755 L26.384083,20.7761755 L26.384083,31.1748951 Z M24.2733801,17.6565402 L24.2733801,18.6964511 L13.7196677,18.6964511 L13.7196677,17.6565402 C13.7196677,14.7897902 16.0870229,12.4571804 18.9964745,12.4571804 C21.905926,12.4571804 24.2733801,14.7896928 24.2733801,17.6565402 Z" id="Shape"></path>
            <path d="M17.9278192,26.56037 L17.9278192,27.94808 C17.9278192,28.5347251 18.4057711,29.009434 18.9964238,29.009434 C19.5870765,29.009434 20.0650283,28.5347251 20.0650283,27.94808 L20.0650283,26.56037 C20.6919457,26.1898364 21.1336329,25.5393131 21.1336329,24.7641178 C21.1336329,23.5940116 20.1746236,22.6415094 18.996524,22.6415094 C17.8184243,22.6415094 16.859415,23.5940116 16.859415,24.7641178 C16.8592147,25.5393131 17.3009019,26.1898364 17.9278192,26.56037 Z" id="Path"></path>
        </g>
    </g>
</svg>