<?xml version="1.0" encoding="UTF-8"?>
<svg width="21px" height="21px" viewBox="0 0 21 21" version="1.1" xmlns="http://www.w3.org/2000/svg" xmlns:xlink="http://www.w3.org/1999/xlink">
    <!-- Generator: Sketch 63.1 (92452) - https://sketch.com -->
    <title>Group 18</title>
    <desc>Created with Sketch.</desc>
    <g id="Page-1" stroke="none" stroke-width="1" fill="none" fill-rule="evenodd">
        <g id="Group-18" transform="translate(2.000000, 1.000000)" fill="#ADB5BD" fill-rule="nonzero">
            <g id="noun_Home_1827289">
                <path d="M15.09916,18.68532 C16.3784,18.68532 17.41916,17.64456 17.41916,16.36532 L17.41916,7.98432 C17.41916,7.32048 17.13408,6.68736 16.637,6.24724 L10.25784,0.59984 C9.38112,-0.17628 8.05884,-0.17628 7.18212,0.59984 L0.80296,6.24724 C0.30592,6.68732 0.02084,7.32048 0.02084,7.98432 L0.02084,16.36532 C0.02084,17.64456 1.0616,18.68532 2.34084,18.68532 L15.09916,18.68532 Z M10.7468,17.24532 L6.6932,17.24532 L6.6932,13.06364 C6.6932,12.5784 7.08796,12.18364 7.5732,12.18364 L9.8668,12.18364 C10.35204,12.18364 10.7468,12.5784 10.7468,13.06364 L10.7468,17.24532 Z M1.46084,16.36532 L1.46084,7.98432 C1.46084,7.73252 1.56896,7.49236 1.75752,7.32544 L8.13668,1.67804 C8.30292,1.53084 8.51148,1.45724 8.72,1.45724 C8.92852,1.45724 9.13708,1.53084 9.30332,1.67804 L15.68248,7.32544 C15.87104,7.49236 15.97916,7.73252 15.97916,7.98436 L15.97916,16.36536 C15.97916,16.8506 15.5844,17.24536 15.09916,17.24536 L12.1868,17.24536 L12.1868,13.06364 C12.1868,11.7844 11.14604,10.74364 9.8668,10.74364 L7.5732,10.74364 C6.29396,10.74364 5.2532,11.7844 5.2532,13.06364 L5.2532,17.24536 L2.34084,17.24536 C1.85564,17.24536 1.46084,16.85056 1.46084,16.36532 Z" id="Shape"></path>
            </g>
        </g>
    </g>
</svg>