<?xml version="1.0" encoding="UTF-8"?>
<svg width="21px" height="21px" viewBox="0 0 21 21" version="1.1" xmlns="http://www.w3.org/2000/svg" xmlns:xlink="http://www.w3.org/1999/xlink">
    <!-- Generator: Sketch 63.1 (92452) - https://sketch.com -->
    <title>Group 18 Copy 5</title>
    <desc>Created with Sketch.</desc>
    <g id="Page-1" stroke="none" stroke-width="1" fill="none" fill-rule="evenodd">
        <g id="noun_account_2572237" transform="translate(3.000000, 1.000000)" fill-rule="nonzero" stroke="#9E1D20">
            <path d="M7.8,9.22430105 C3.50957,9.22430105 0.019042,12.5347453 0.019042,16.6040295 C0.019042,18.4891032 4.210546,19.1578947 7.8,19.1578947 C11.389454,19.1578947 15.580958,18.4891032 15.580958,16.6040295 C15.580958,12.5347368 12.09043,9.22430105 7.8,9.22430105 Z M7.8,18.4000905 C3.438574,18.4000905 0.738964,17.4677305 0.738964,16.6040379 C0.738964,12.9527137 3.906542,9.98210526 7.8,9.98210526 C11.693458,9.98210526 14.861036,12.9527053 14.861036,16.6040211 C14.861036,17.4677221 12.161426,18.4000905 7.8,18.4000905 L7.8,18.4000905 Z M11.636524,4.24897263 C11.636524,2.61557338 10.7017863,1.14300866 9.26817556,0.517933236 C7.83456486,-0.107142187 6.18440716,0.238369619 5.08716857,1.39335701 C3.98992998,2.54834439 3.6616929,4.28535232 4.25551381,5.79441654 C4.84933471,7.30348076 6.24827071,8.28741684 7.8,8.28741684 C9.91786372,8.28490501 11.6341367,6.47830286 11.636524,4.24897263 Z M4.683398,4.24897263 C4.683398,2.43713039 6.07874854,0.968343158 7.79999867,0.968343158 C9.5212488,0.968343158 10.916598,2.43713179 10.916598,4.24897404 C10.916598,6.06081628 9.52125013,7.52960632 7.8,7.52960632 C6.07955318,7.52756321 4.68533985,6.05996929 4.683398,4.24897263 L4.683398,4.24897263 Z" id="Shape"></path>
        </g>
    </g>
</svg>