<?xml version="1.0" encoding="UTF-8"?>
<svg width="47px" height="47px" viewBox="0 0 47 47" version="1.1" xmlns="http://www.w3.org/2000/svg" xmlns:xlink="http://www.w3.org/1999/xlink">
    <!-- Generator: Sketch 63.1 (92452) - https://sketch.com -->
    <title>tick</title>
    <desc>Created with Sketch.</desc>
    <g id="Page-1" stroke="none" stroke-width="1" fill="none" fill-rule="evenodd">
        <g id="tick" transform="translate(1.000000, 1.000000)">
            <circle id="Oval" stroke="#00A21B" stroke-width="2" fill="#FFFFFF" cx="22.5" cy="22.5" r="22.5"></circle>
            <path d="M29.9738812,16.0001817 C29.4140374,15.9932764 28.9276731,16.1831725 28.5147883,16.56987 L18.5950563,26.0577693 L15.5823969,22.7328613 C15.1975043,22.3254479 14.7251361,22.1079306 14.1652924,22.0803093 C13.5984505,22.0457827 13.1050882,22.2184156 12.6852054,22.5982077 C12.2583245,22.9710946 12.0308879,23.4337505 12.0028957,23.9861755 C11.9749036,24.5455058 12.1498547,25.035783 12.5277493,25.4570071 L16.9680103,30.3356103 C17.2129419,30.6118228 17.517357,30.8017189 17.8812555,30.9052986 C18.2381559,31.0157836 18.6020543,31.0295942 18.9729508,30.9467304 C19.3368493,30.8638667 19.6517614,30.6912339 19.9176872,30.428832 L31.3804887,19.4804592 C31.7863754,19.0799511 31.9928178,18.6034845 32,18.0510595 C32.0068139,17.4986345 31.8143676,17.0187153 31.4224769,16.6113019 C31.0305863,16.2038884 30.547721,16.0001817 29.9738812,16.0001817 Z" id="Shape" fill="#00A21B" fill-rule="nonzero"></path>
        </g>
    </g>
</svg>