<svg xmlns="http://www.w3.org/2000/svg" width="126" height="126" viewBox="0 0 126 126">
  <g fill="none" fill-rule="evenodd" transform="translate(3 3)">
    <path fill="#9D1C20" fill-rule="nonzero" d="M61.4489012,2.79408378 C61.1045099,2.55385014 60.6630012,2.4949929 60.2670239,2.64021413 L49.736933,6.43890846 C48.4314188,6.90940603 47.391948,7.85784842 46.8104547,9.10898518 C46.7014701,9.34357332 46.6299035,9.58729034 46.5582159,9.83064701 C44.7500405,9.32075113 41.3896824,8.25579543 38.0501524,6.54905558 C33.0038027,3.96978718 29.1485335,5.24374613 25.8419411,7.74553919 C24.1664847,7.77821097 21.8572224,7.97472208 19.5871945,8.17315506 C18.1391526,8.2998783 16.7706695,8.41651173 15.6609642,8.48365703 C15.633718,7.82253407 15.477749,7.16645602 15.1900297,6.54665324 C14.6085363,5.29539637 13.5691866,4.34695398 12.2635513,3.87657653 L1.73321823,0.0776419669 C1.33845183,-0.0662579794 0.894400184,-0.00740073926 0.55134092,0.231511609 C0.205617589,0.471865359 0,0.863446182 0,1.28133259 L0,26.9062134 C0,27.6144222 0.577739409,28.1874995 1.29170955,28.1874995 L5.06451379,28.1874995 C6.66913021,28.1874995 8.16197687,27.4367694 9.12697485,26.2245505 C9.64101882,26.6122876 10.2498794,27.0663292 10.888408,27.5418716 C12.3957859,28.6667656 14.0456915,29.8941192 14.7697124,30.4960246 C19.5794445,34.4899088 25.3616823,38.8028232 26.5132861,39.5535533 C27.5892062,40.2541947 29.52671,41 31.0000605,41 C31.5764679,41 33.0283848,41 34.0476329,40.1453688 C35.0983654,40.5544867 36.2310785,40.5345473 37.284354,40.0740195 C38.3350866,39.6148129 39.1852874,38.7490109 39.6797142,37.6966674 C40.6887904,37.9018269 41.8480231,37.7516809 42.8987556,37.2286923 C43.8838552,36.7394565 44.6092082,35.9986961 44.9976777,35.1328941 C45.9310701,35.2179368 46.9276736,34.9164436 47.8194098,34.2394652 C49.0935607,33.2733657 49.6769915,31.8466181 49.5119404,30.4390892 L52.7883804,28.6410606 C53.7479291,29.9312353 55.2729868,30.7498315 56.9354862,30.7498315 L60.7082904,30.7498315 C61.4222605,30.7498315 62,30.1767541 62,29.4685454 L62,3.84390475 C62,3.42589823 61.7945035,3.03431741 61.4489012,2.79408378 Z M7.48385055,23.9621503 C7.10797481,24.9568376 6.13546901,25.6250475 5.06451379,25.6250475 L2.58329801,25.6250475 L2.58329801,3.11059159 L11.3802917,6.28371753 C12.0337149,6.52022755 12.5534503,6.99444874 12.8434704,7.62001712 C13.1348225,8.2455855 13.1601312,8.94634701 12.9166112,9.59065361 L7.48385055,23.9621503 Z M46.2516059,32.2039656 C45.8138512,32.5368093 45.2008734,32.7220295 44.9284119,32.4517666 C44.9144861,32.4379532 44.8929314,32.4392745 44.8786423,32.4260616 C44.8539391,32.4033595 44.8417086,32.3727298 44.8149469,32.3515892 C43.8916052,31.6283658 39.754187,27.4293222 37.1974086,24.7842298 C36.7041927,24.2725321 35.8855974,24.2536738 35.3721589,24.745432 C34.8562985,25.2346678 34.8386188,26.0454563 35.3330455,26.5559528 C35.9331873,27.1773171 40.7507905,32.1543574 42.67897,33.8949702 C42.5349893,34.4575973 42.0091992,34.8049752 41.742187,34.9378244 C40.9147518,35.3494647 40.0519571,35.2806378 39.7289994,34.9828682 C39.719433,34.9739795 39.7051439,34.97446 39.6952142,34.9658116 C39.679472,34.951878 39.6724485,34.932299 39.6557376,34.9190862 C38.1067033,33.6916124 34.220434,29.5951485 33.3411706,28.6467061 C32.8580056,28.1249187 32.0419532,28.092367 31.5159209,28.5704319 C30.9912207,29.049698 30.9558612,29.8604865 31.4390262,30.3809527 C31.4814091,30.426477 35.2900572,34.5016802 37.4291824,36.3946011 C37.2189633,36.9937438 36.7906539,37.4899464 36.2411293,37.7305404 C35.8355856,37.9092742 35.2012953,38.0009233 34.4765478,37.4696466 C32.6216301,35.9095694 28.8990799,31.9789868 28.1669456,31.2017109 C27.6813587,30.6836471 26.8614313,30.6574616 26.341696,31.1404513 C25.8207496,31.6234411 25.7930191,32.4342296 26.279938,32.9509721 C27.1479397,33.8725083 29.713558,36.5698516 31.6638978,38.3962278 C31.4460497,38.4225333 31.2173031,38.437548 31.0000605,38.437548 C30.1447737,38.437548 28.6752982,37.8958211 27.9323866,37.4115101 C27.0267246,36.8208957 21.3402721,32.6118823 16.4296688,28.5328354 C15.6867572,27.9147142 13.9914414,26.649764 12.4398641,25.4936397 C11.6083117,24.8744375 10.8421501,24.3035223 10.2774888,23.8726632 L15.1137404,11.0783004 C16.3691218,11.0238875 18.0427618,10.8803479 19.8140035,10.7253972 C20.8158141,10.637832 21.8187145,10.552429 22.7770523,10.478437 C21.304065,11.9783357 19.1140803,14.6647483 19.4027683,17.1828772 C19.5352452,18.3290319 20.1672347,19.2837204 21.233104,19.9443629 C23.3434089,21.2543569 27.2500219,20.1557685 29.1319436,17.8598556 C30.3466374,17.6859265 31.1678968,17.3781872 32.0633868,16.9377188 C33.5770616,18.3490914 35.6065969,20.008265 37.7384565,21.75116 C41.4495028,24.7841096 45.6561868,28.2224535 46.7687983,30.1505687 C47.388073,31.2229716 46.5291533,31.9937612 46.2516059,32.2039656 Z M48.4675048,28.0834784 C46.746517,25.7998174 43.0158535,22.744406 39.3807331,19.7730763 C36.9576425,17.79235 34.6694505,15.9217708 33.2049398,14.4691981 C32.8013336,14.0712511 32.1819378,13.9811635 31.6824251,14.2451803 C30.366739,14.9446205 29.7739839,15.2336215 28.2880396,15.3812451 C27.8919412,15.421244 27.5362881,15.6390158 27.3243737,15.9730607 C26.3114225,17.5671309 23.4959873,18.3253083 22.6029191,17.7722905 C22.0957775,17.4569838 21.9974492,17.1366323 21.9697187,16.892675 C21.8448708,15.8028551 22.9573612,13.9160602 24.8028336,12.0842787 C29.3729206,7.55107007 32.6399153,6.66400737 36.866822,8.82611007 C40.8827829,10.8799875 44.8463102,12.0412769 46.5101416,12.4799435 C46.5582159,12.6718902 46.593091,12.8657587 46.664052,13.0539818 L51.6794017,26.3210043 L48.4675048,28.0834784 Z M59.416823,28.1874995 L56.9356072,28.1874995 C55.864652,28.1874995 54.8921462,27.5192897 54.5162705,26.5246023 L49.0833888,12.1544269 C48.8399899,11.5087991 48.8651774,10.8081577 49.1565296,10.1824692 C49.4466708,9.55690079 49.9664061,9.08267959 50.6197082,8.84616958 L59.4167019,5.67304364 L59.4167019,28.1874995 L59.416823,28.1874995 Z" transform="translate(29 40)"/>
    <circle cx="60" cy="60" r="60" stroke="#9D1C20" stroke-width="2"/>
  </g>
</svg>
